<?xml version="1.0" encoding="UTF-8" standalone="no" ?>
<Trial name="static" notes="">

  <Parameters>
    <Param header="0" name="Capture Date" value="2022-Nov-29 09:42:18"/>
    <Param header="0" name="x2d" value="static.x2d"/>
    <Param header="0" name="vvid" value="static.2136978.vvid"/>
    <Param header="0" name="vvid" value="static.2138999.vvid"/>
    <Param header="0" name="x1d" value="static.x1d"/>
  </Parameters>

  <Run name="" notes="">
    <Parameters>
      <Param header="0" name="Version" value="2.12.1.133760h"/>
      <Param header="0" name="Start Date" value="2022-Nov-29 09:42:28"/>
    </Parameters>
    <OperationType name="Core Processing" notes="">
      <OperationSubType name="Reconstruct" notes="">
        <Parameters>
          <Param header="0" name="Date" value="2022-Nov-29 09:42:28"/>
          <Param header="1" name="Frame Range" value=""/>
          <Param header="0" name="First Frame" value="1"/>
          <Param header="0" name="Last Frame" value="3161"/>
          <Param header="1" name="Grayscale Circle Fitting" value=""/>
          <Param header="0" name="Enable" value="Yes"/>
          <Param header="0" name="Circularity Threshold Tweak" value="0"/>
          <Param header="1" name="Reconstruction" value=""/>
          <Param header="0" name="3D Predictions" value="No"/>
          <Param header="0" name="Environmental Drift Tolerance" value="1.5"/>
          <Param header="0" name="Minimum Cameras to Start Trajectory" value="2"/>
          <Param header="0" name="Minimum Cameras to Continue Trajectory" value="2"/>
          <Param header="0" name="Reconstruction Minimum Separation" value="14"/>
          <Param header="0" name="Minimum Centroid Radius" value="0"/>
          <Param header="0" name="Maximum Centroid Radius" value="50"/>
          <Param header="0" name="Minimum Reconstruction Radius" value="0"/>
          <Param header="0" name="Maximum Reconstruction Radius" value="1000"/>
          <Param header="0" name="Volume Min X" value="-100000"/>
          <Param header="0" name="Volume Min Y" value="-100000"/>
          <Param header="0" name="Volume Min Z" value="-100000"/>
          <Param header="0" name="Volume Max X" value="100000"/>
          <Param header="0" name="Volume Max Y" value="100000"/>
          <Param header="0" name="Volume Max Z" value="100000"/>
          <Param header="1" name="Trajectory Tracking" value=""/>
          <Param header="0" name="Trajectory Startup Error" value="150"/>
          <Param header="0" name="Trajectory Prediction Error" value="150"/>
          <Param header="0" name="Max Trajectory Length to Delete" value="0"/>
        </Parameters>
      </OperationSubType>
    </OperationType>
    <OperationType name="Subject Calibration" notes="">
      <OperationSubType name="Autolabel Static" notes="">
        <Parameters>
          <Param header="0" name="Date" value="2022-Nov-29 09:42:28"/>
          <Param header="0" name="Frame" value="1"/>
          <Param header="0" name="Tolerance" value="0.025000000000000001"/>
          <Param header="0" name="Minimum Subject Separation" value="1"/>
          <Param header="0" name="Clear existing trajectory labels" value="Yes"/>
        </Parameters>
      </OperationSubType>
    </OperationType>
    <OperationType name="Fill Gaps &amp; Filter Data" notes="">
      <OperationSubType name="Fill Gaps - Woltring" notes="">
        <Parameters>
          <Param header="0" name="Date" value="2022-Nov-29 09:42:28"/>
          <Param header="0" name="Max Gap Length" value="30"/>
          <Param header="0" name="Max Gap Units" value="Frames"/>
          <Param header="0" name="First Frame" value="1"/>
          <Param header="0" name="Last Frame" value="3161"/>
          <Param header="1" name="Log Output" value=""/>
          <Param header="0" name="Filled 231 out of 397 gaps" value=""/>
        </Parameters>
      </OperationSubType>
      <OperationSubType name="Delete Unlabeled Trajectories" notes="">
        <Parameters>
          <Param header="0" name="Date" value="2022-Nov-29 09:42:28"/>
          <Param header="0" name="Delete using Max Length" value="No"/>
          <Param header="0" name="Max Length to Delete" value="25"/>
          <Param header="0" name="First Frame" value="1"/>
          <Param header="0" name="Last Frame" value="3161"/>
          <Param header="1" name="Log Output" value=""/>
          <Param header="0" name="Fully deleted: 511" value=""/>
          <Param header="0" name="Partially deleted: 0" value=""/>
        </Parameters>
      </OperationSubType>
    </OperationType>
    <OperationType name="Subject Calibration" notes="">
      <OperationSubType name="Functional Skeleton Calibration" notes="">
        <Parameters>
          <Param header="0" name="Date" value="2022-Nov-29 09:42:57"/>
          <Param header="0" name="Calibration Skeleton" value=""/>
          <Param header="0" name="First Frame" value="1"/>
          <Param header="0" name="Last Frame" value="3161"/>
          <Param header="0" name="Static Frame" value="1"/>
          <Param header="0" name="Quality Of Fit" value="Accurate"/>
          <Param header="0" name="Number of Active Frames" value="320"/>
          <Param header="0" name="Mean Pose Importance" value="1.0000000000000001e-05"/>
          <Param header="0" name="Joint Position Importance" value="0.20000000000000001"/>
          <Param header="0" name="Marker Position Importance" value="0.20000000000000001"/>
          <Param header="0" name="Calibrate From Prior" value="Yes"/>
          <Param header="0" name="Use Template Statistics" value="No"/>
          <Param header="0" name="Remove Optional Markers" value="Yes"/>
          <Param header="0" name="Remove Calibration Markers" value="Yes"/>
          <Param header="0" name="Ignore Calibration Markers" value="No"/>
          <Param header="0" name="Non-Constraint Markers" value=""/>
          <Param header="0" name="Static Constraint Markers" value=""/>
          <Param header="1" name="Log Output" value=""/>
          <Param header="0" name="P1589: RMS Error = 3.77296 mm" value=""/>
          <Param header="0" name="P1589: Worst Error = 22.9035 mm for marker LLTHI in Frame 1261" value=""/>
          <Param header="0" name="P1589: Worst 20 frames:" value=""/>
          <Param header="0" name=" Error = 18.5891 mm for Marker P1589::LLEK in Frame 2499" value=""/>
          <Param header="0" name=" Error = 18.6914 mm for Marker P1589::LLEK in Frame 2497" value=""/>
          <Param header="0" name=" Error = 18.7837 mm for Marker P1589::RASIS in Frame 974" value=""/>
          <Param header="0" name=" Error = 18.9056 mm for Marker P1589::RASIS in Frame 970" value=""/>
          <Param header="0" name=" Error = 19.063 mm for Marker P1589::RASIS in Frame 975" value=""/>
          <Param header="0" name=" Error = 19.11 mm for Marker P1589::RASIS in Frame 988" value=""/>
          <Param header="0" name=" Error = 19.6879 mm for Marker P1589::RASIS in Frame 987" value=""/>
          <Param header="0" name=" Error = 19.6958 mm for Marker P1589::RASIS in Frame 976" value=""/>
          <Param header="0" name=" Error = 20.0096 mm for Marker P1589::LLSHA in Frame 2867" value=""/>
          <Param header="0" name=" Error = 20.1097 mm for Marker P1589::RASIS in Frame 977" value=""/>
          <Param header="0" name=" Error = 20.2607 mm for Marker P1589::RASIS in Frame 986" value=""/>
          <Param header="0" name=" Error = 20.7611 mm for Marker P1589::RASIS in Frame 978" value=""/>
          <Param header="0" name=" Error = 20.8139 mm for Marker P1589::RASIS in Frame 985" value=""/>
          <Param header="0" name=" Error = 20.9979 mm for Marker P1589::RASIS in Frame 984" value=""/>
          <Param header="0" name=" Error = 21.0854 mm for Marker P1589::RASIS in Frame 979" value=""/>
          <Param header="0" name=" Error = 21.4099 mm for Marker P1589::RASIS in Frame 983" value=""/>
          <Param header="0" name=" Error = 21.4471 mm for Marker P1589::RASIS in Frame 982" value=""/>
          <Param header="0" name=" Error = 21.4614 mm for Marker P1589::RASIS in Frame 980" value=""/>
          <Param header="0" name=" Error = 21.5858 mm for Marker P1589::RASIS in Frame 981" value=""/>
          <Param header="0" name=" Error = 22.9035 mm for Marker P1589::LLTHI in Frame 1261" value=""/>
        </Parameters>
      </OperationSubType>
    </OperationType>
  </Run>

  <Run name="" notes="">
    <Parameters>
      <Param header="0" name="Version" value="2.12.1.133760h"/>
      <Param header="0" name="Start Date" value="2022-Nov-29 09:43:09"/>
    </Parameters>
    <OperationType name="Core Processing" notes="">
      <OperationSubType name="Reconstruct" notes="">
        <Parameters>
          <Param header="0" name="Date" value="2022-Nov-29 09:43:09"/>
          <Param header="1" name="Frame Range" value=""/>
          <Param header="0" name="First Frame" value="1"/>
          <Param header="0" name="Last Frame" value="3161"/>
          <Param header="1" name="Grayscale Circle Fitting" value=""/>
          <Param header="0" name="Enable" value="Yes"/>
          <Param header="0" name="Circularity Threshold Tweak" value="0"/>
          <Param header="1" name="Reconstruction" value=""/>
          <Param header="0" name="3D Predictions" value="No"/>
          <Param header="0" name="Environmental Drift Tolerance" value="1.5"/>
          <Param header="0" name="Minimum Cameras to Start Trajectory" value="2"/>
          <Param header="0" name="Minimum Cameras to Continue Trajectory" value="2"/>
          <Param header="0" name="Reconstruction Minimum Separation" value="14"/>
          <Param header="0" name="Minimum Centroid Radius" value="0"/>
          <Param header="0" name="Maximum Centroid Radius" value="50"/>
          <Param header="0" name="Minimum Reconstruction Radius" value="0"/>
          <Param header="0" name="Maximum Reconstruction Radius" value="1000"/>
          <Param header="0" name="Volume Min X" value="-100000"/>
          <Param header="0" name="Volume Min Y" value="-100000"/>
          <Param header="0" name="Volume Min Z" value="-100000"/>
          <Param header="0" name="Volume Max X" value="100000"/>
          <Param header="0" name="Volume Max Y" value="100000"/>
          <Param header="0" name="Volume Max Z" value="100000"/>
          <Param header="1" name="Trajectory Tracking" value=""/>
          <Param header="0" name="Trajectory Startup Error" value="150"/>
          <Param header="0" name="Trajectory Prediction Error" value="150"/>
          <Param header="0" name="Max Trajectory Length to Delete" value="0"/>
        </Parameters>
      </OperationSubType>
    </OperationType>
    <OperationType name="Subject Calibration" notes="">
      <OperationSubType name="Autolabel Static" notes="">
        <Parameters>
          <Param header="0" name="Date" value="2022-Nov-29 09:43:10"/>
          <Param header="0" name="Frame" value="1"/>
          <Param header="0" name="Tolerance" value="0.025000000000000001"/>
          <Param header="0" name="Minimum Subject Separation" value="1"/>
          <Param header="0" name="Clear existing trajectory labels" value="Yes"/>
        </Parameters>
      </OperationSubType>
    </OperationType>
    <OperationType name="Manual Edits" notes="">
      <OperationSubType name="Label Trajectory P1589:RLTHI" notes="">
        <Parameters>
          <Param header="0" name="Date" value="2022-Nov-29 09:44:10"/>
          <Param header="0" name="Label" value="P1589:RLTHI"/>
          <Param header="0" name="Frame" value="924"/>
        </Parameters>
      </OperationSubType>
      <OperationSubType name="Label Trajectory P1589:RLSHA" notes="">
        <Parameters>
          <Param header="0" name="Date" value="2022-Nov-29 09:44:12"/>
          <Param header="0" name="Label" value="P1589:RLSHA"/>
          <Param header="0" name="Frame" value="924"/>
        </Parameters>
      </OperationSubType>
      <OperationSubType name="Label Trajectory P1589:LMT2" notes="">
        <Parameters>
          <Param header="0" name="Date" value="2022-Nov-29 09:44:15"/>
          <Param header="0" name="Label" value="P1589:LMT2"/>
          <Param header="0" name="Frame" value="924"/>
        </Parameters>
      </OperationSubType>
      <OperationSubType name="Label Trajectory P1589:RLTHI" notes="">
        <Parameters>
          <Param header="0" name="Date" value="2022-Nov-29 09:44:22"/>
          <Param header="0" name="Label" value="P1589:RLTHI"/>
          <Param header="0" name="Frame" value="1017"/>
        </Parameters>
      </OperationSubType>
      <OperationSubType name="Label Trajectory P1589:RLSHA" notes="">
        <Parameters>
          <Param header="0" name="Date" value="2022-Nov-29 09:44:24"/>
          <Param header="0" name="Label" value="P1589:RLSHA"/>
          <Param header="0" name="Frame" value="1017"/>
        </Parameters>
      </OperationSubType>
      <OperationSubType name="Label Trajectory P1589:RLTHI" notes="">
        <Parameters>
          <Param header="0" name="Date" value="2022-Nov-29 09:44:28"/>
          <Param header="0" name="Label" value="P1589:RLTHI"/>
          <Param header="0" name="Frame" value="1110"/>
        </Parameters>
      </OperationSubType>
      <OperationSubType name="Label Trajectory P1589:LMT2" notes="">
        <Parameters>
          <Param header="0" name="Date" value="2022-Nov-29 09:44:30"/>
          <Param header="0" name="Label" value="P1589:LMT2"/>
          <Param header="0" name="Frame" value="1110"/>
        </Parameters>
      </OperationSubType>
      <OperationSubType name="Label Trajectory P1589:RLTHI" notes="">
        <Parameters>
          <Param header="0" name="Date" value="2022-Nov-29 09:44:36"/>
          <Param header="0" name="Label" value="P1589:RLTHI"/>
          <Param header="0" name="Frame" value="1240"/>
        </Parameters>
      </OperationSubType>
      <OperationSubType name="Label Trajectory P1589:RLEK" notes="">
        <Parameters>
          <Param header="0" name="Date" value="2022-Nov-29 09:44:38"/>
          <Param header="0" name="Label" value="P1589:RLEK"/>
          <Param header="0" name="Frame" value="1240"/>
        </Parameters>
      </OperationSubType>
      <OperationSubType name="Label Trajectory P1589:RLSHA" notes="">
        <Parameters>
          <Param header="0" name="Date" value="2022-Nov-29 09:44:40"/>
          <Param header="0" name="Label" value="P1589:RLSHA"/>
          <Param header="0" name="Frame" value="1240"/>
        </Parameters>
      </OperationSubType>
      <OperationSubType name="Label Trajectory P1589:LLTHI" notes="">
        <Parameters>
          <Param header="0" name="Date" value="2022-Nov-29 09:44:46"/>
          <Param header="0" name="Label" value="P1589:LLTHI"/>
          <Param header="0" name="Frame" value="1272"/>
        </Parameters>
      </OperationSubType>
      <OperationSubType name="Label Trajectory P1589:RLSHA" notes="">
        <Parameters>
          <Param header="0" name="Date" value="2022-Nov-29 09:44:50"/>
          <Param header="0" name="Label" value="P1589:RLSHA"/>
          <Param header="0" name="Frame" value="1309"/>
        </Parameters>
      </OperationSubType>
      <OperationSubType name="Label Trajectory P1589:RMEK" notes="">
        <Parameters>
          <Param header="0" name="Date" value="2022-Nov-29 09:44:56"/>
          <Param header="0" name="Label" value="P1589:RMEK"/>
          <Param header="0" name="Frame" value="1386"/>
        </Parameters>
      </OperationSubType>
      <OperationSubType name="Label Trajectory P1589:RLSHA" notes="">
        <Parameters>
          <Param header="0" name="Date" value="2022-Nov-29 09:44:58"/>
          <Param header="0" name="Label" value="P1589:RLSHA"/>
          <Param header="0" name="Frame" value="1386"/>
        </Parameters>
      </OperationSubType>
      <OperationSubType name="Label Trajectory P1589:RLSHA" notes="">
        <Parameters>
          <Param header="0" name="Date" value="2022-Nov-29 09:45:03"/>
          <Param header="0" name="Label" value="P1589:RLSHA"/>
          <Param header="0" name="Frame" value="1448"/>
        </Parameters>
      </OperationSubType>
      <OperationSubType name="Label Trajectory P1589:LLTHI" notes="">
        <Parameters>
          <Param header="0" name="Date" value="2022-Nov-29 09:45:05"/>
          <Param header="0" name="Label" value="P1589:LLTHI"/>
          <Param header="0" name="Frame" value="1448"/>
        </Parameters>
      </OperationSubType>
      <OperationSubType name="Label Trajectory P1589:RLSHA" notes="">
        <Parameters>
          <Param header="0" name="Date" value="2022-Nov-29 09:45:08"/>
          <Param header="0" name="Label" value="P1589:RLSHA"/>
          <Param header="0" name="Frame" value="1501"/>
        </Parameters>
      </OperationSubType>
      <OperationSubType name="Label Trajectory P1589:RHEE" notes="">
        <Parameters>
          <Param header="0" name="Date" value="2022-Nov-29 09:45:20"/>
          <Param header="0" name="Label" value="P1589:RHEE"/>
          <Param header="0" name="Frame" value="1529"/>
        </Parameters>
      </OperationSubType>
      <OperationSubType name="Label Trajectory P1589:RLTHI" notes="">
        <Parameters>
          <Param header="0" name="Date" value="2022-Nov-29 09:45:22"/>
          <Param header="0" name="Label" value="P1589:RLTHI"/>
          <Param header="0" name="Frame" value="1529"/>
        </Parameters>
      </OperationSubType>
      <OperationSubType name="Label Trajectory P1589:RHEE" notes="">
        <Parameters>
          <Param header="0" name="Date" value="2022-Nov-29 09:45:26"/>
          <Param header="0" name="Label" value="P1589:RHEE"/>
          <Param header="0" name="Frame" value="1570"/>
        </Parameters>
      </OperationSubType>
    </OperationType>
    <OperationType name="Fill Gaps &amp; Filter Data" notes="">
      <OperationSubType name="Fill Gaps - Woltring" notes="">
        <Parameters>
          <Param header="0" name="Date" value="2022-Nov-29 09:45:29"/>
          <Param header="0" name="Max Gap Length" value="30"/>
          <Param header="0" name="Max Gap Units" value="Frames"/>
          <Param header="0" name="First Frame" value="1"/>
          <Param header="0" name="Last Frame" value="1570"/>
          <Param header="1" name="Log Output" value=""/>
          <Param header="0" name="Filled 121 out of 218 gaps" value=""/>
        </Parameters>
      </OperationSubType>
    </OperationType>
    <OperationType name="Manual Edits" notes="">
      <OperationSubType name="Label Trajectory P1589:LMT2" notes="">
        <Parameters>
          <Param header="0" name="Date" value="2022-Nov-29 09:45:36"/>
          <Param header="0" name="Label" value="P1589:LMT2"/>
          <Param header="0" name="Frame" value="903"/>
        </Parameters>
      </OperationSubType>
      <OperationSubType name="Label Trajectory P1589:RLSHA" notes="">
        <Parameters>
          <Param header="0" name="Date" value="2022-Nov-29 09:45:39"/>
          <Param header="0" name="Label" value="P1589:RLSHA"/>
          <Param header="0" name="Frame" value="903"/>
        </Parameters>
      </OperationSubType>
      <OperationSubType name="Label Trajectory P1589:RLTHI" notes="">
        <Parameters>
          <Param header="0" name="Date" value="2022-Nov-29 09:45:42"/>
          <Param header="0" name="Label" value="P1589:RLTHI"/>
          <Param header="0" name="Frame" value="903"/>
        </Parameters>
      </OperationSubType>
    </OperationType>
    <OperationType name="Fill Gaps &amp; Filter Data" notes="">
      <OperationSubType name="Fill Gaps - Woltring" notes="">
        <Parameters>
          <Param header="0" name="Date" value="2022-Nov-29 09:45:45"/>
          <Param header="0" name="Max Gap Length" value="30"/>
          <Param header="0" name="Max Gap Units" value="Frames"/>
          <Param header="0" name="First Frame" value="1"/>
          <Param header="0" name="Last Frame" value="1570"/>
          <Param header="1" name="Log Output" value=""/>
          <Param header="0" name="Filled 1 out of 97 gaps" value=""/>
        </Parameters>
      </OperationSubType>
    </OperationType>
    <OperationType name="Manual Edits" notes="">
      <OperationSubType name="Label Trajectory P1589:LMT2" notes="">
        <Parameters>
          <Param header="0" name="Date" value="2022-Nov-29 09:45:51"/>
          <Param header="0" name="Label" value="P1589:LMT2"/>
          <Param header="0" name="Frame" value="1073"/>
        </Parameters>
      </OperationSubType>
      <OperationSubType name="Label Trajectory P1589:LMT2" notes="">
        <Parameters>
          <Param header="0" name="Date" value="2022-Nov-29 09:45:57"/>
          <Param header="0" name="Label" value="P1589:LMT2"/>
          <Param header="0" name="Frame" value="1054"/>
        </Parameters>
      </OperationSubType>
      <OperationSubType name="Label Trajectory P1589:LMT2" notes="">
        <Parameters>
          <Param header="0" name="Date" value="2022-Nov-29 09:46:03"/>
          <Param header="0" name="Label" value="P1589:LMT2"/>
          <Param header="0" name="Frame" value="1045"/>
        </Parameters>
      </OperationSubType>
      <OperationSubType name="Label Trajectory P1589:RHEE" notes="">
        <Parameters>
          <Param header="0" name="Date" value="2022-Nov-29 09:46:09"/>
          <Param header="0" name="Label" value="P1589:RHEE"/>
          <Param header="0" name="Frame" value="1552"/>
        </Parameters>
      </OperationSubType>
    </OperationType>
    <OperationType name="Fill Gaps &amp; Filter Data" notes="">
      <OperationSubType name="Fill Gaps - Woltring" notes="">
        <Parameters>
          <Param header="0" name="Date" value="2022-Nov-29 09:46:11"/>
          <Param header="0" name="Max Gap Length" value="30"/>
          <Param header="0" name="Max Gap Units" value="Frames"/>
          <Param header="0" name="First Frame" value="1"/>
          <Param header="0" name="Last Frame" value="1570"/>
          <Param header="1" name="Log Output" value=""/>
          <Param header="0" name="Filled 2 out of 96 gaps" value=""/>
        </Parameters>
      </OperationSubType>
    </OperationType>
    <OperationType name="Manual Edits" notes="">
      <OperationSubType name="Copy Pattern Filled Trajectory (All):  RLSHA" notes="">
        <Parameters>
          <Param header="0" name="Date" value="2022-Nov-29 09:46:20"/>
          <Param header="0" name="Trajectory" value="RLSHA"/>
          <Param header="0" name="Donor Trajectory" value="RLM"/>
          <Param header="0" name="Gaps Filled" value="Filled 6 out of 6 gaps"/>
        </Parameters>
      </OperationSubType>
      <OperationSubType name="Copy Pattern Filled Trajectory (All):  RLEK" notes="">
        <Parameters>
          <Param header="0" name="Date" value="2022-Nov-29 09:46:26"/>
          <Param header="0" name="Trajectory" value="RLEK"/>
          <Param header="0" name="Donor Trajectory" value="RMEK"/>
          <Param header="0" name="Gaps Filled" value="Filled 1 out of 1 gaps"/>
        </Parameters>
      </OperationSubType>
      <OperationSubType name="Label Trajectory P1589:RLTHI" notes="">
        <Parameters>
          <Param header="0" name="Date" value="2022-Nov-29 09:46:30"/>
          <Param header="0" name="Label" value="P1589:RLTHI"/>
          <Param header="0" name="Frame" value="811"/>
        </Parameters>
      </OperationSubType>
      <OperationSubType name="Label Trajectory P1589:RLTHI" notes="">
        <Parameters>
          <Param header="0" name="Date" value="2022-Nov-29 09:46:35"/>
          <Param header="0" name="Label" value="P1589:RLTHI"/>
          <Param header="0" name="Frame" value="765"/>
        </Parameters>
      </OperationSubType>
      <OperationSubType name="Copy Pattern Filled Trajectory (All):  RLTHI" notes="">
        <Parameters>
          <Param header="0" name="Date" value="2022-Nov-29 09:46:42"/>
          <Param header="0" name="Trajectory" value="RLTHI"/>
          <Param header="0" name="Donor Trajectory" value="RLEK"/>
          <Param header="0" name="Gaps Filled" value="Filled 3 out of 3 gaps"/>
        </Parameters>
      </OperationSubType>
    </OperationType>
    <OperationType name="Fill Gaps &amp; Filter Data" notes="">
      <OperationSubType name="Delete Unlabeled Trajectories" notes="">
        <Parameters>
          <Param header="0" name="Date" value="2022-Nov-29 09:46:45"/>
          <Param header="0" name="Delete using Max Length" value="No"/>
          <Param header="0" name="Max Length to Delete" value="25"/>
          <Param header="0" name="First Frame" value="1"/>
          <Param header="0" name="Last Frame" value="1570"/>
          <Param header="1" name="Log Output" value=""/>
          <Param header="0" name="Fully deleted: 174" value=""/>
          <Param header="0" name="Partially deleted: 0" value=""/>
        </Parameters>
      </OperationSubType>
    </OperationType>
    <OperationType name="Subject Calibration" notes="">
      <OperationSubType name="Functional Skeleton Calibration" notes="">
        <Parameters>
          <Param header="0" name="Date" value="2022-Nov-29 09:47:00"/>
          <Param header="0" name="Calibration Skeleton" value=""/>
          <Param header="0" name="First Frame" value="1"/>
          <Param header="0" name="Last Frame" value="1570"/>
          <Param header="0" name="Static Frame" value="1"/>
          <Param header="0" name="Quality Of Fit" value="Accurate"/>
          <Param header="0" name="Number of Active Frames" value="320"/>
          <Param header="0" name="Mean Pose Importance" value="1.0000000000000001e-05"/>
          <Param header="0" name="Joint Position Importance" value="0.20000000000000001"/>
          <Param header="0" name="Marker Position Importance" value="0.20000000000000001"/>
          <Param header="0" name="Calibrate From Prior" value="Yes"/>
          <Param header="0" name="Use Template Statistics" value="No"/>
          <Param header="0" name="Remove Optional Markers" value="Yes"/>
          <Param header="0" name="Remove Calibration Markers" value="Yes"/>
          <Param header="0" name="Ignore Calibration Markers" value="No"/>
          <Param header="0" name="Non-Constraint Markers" value=""/>
          <Param header="0" name="Static Constraint Markers" value=""/>
          <Param header="1" name="Log Output" value=""/>
          <Param header="0" name="P1589: RMS Error = 10.8116 mm" value=""/>
          <Param header="0" name="P1589: Worst Error = 474.021 mm for marker LLTHI in Frame 1433" value=""/>
          <Param header="0" name="P1589: Worst 20 frames:" value=""/>
          <Param header="0" name=" Error = 130.802 mm for Marker P1589::LMT2 in Frame 890" value=""/>
          <Param header="0" name=" Error = 133.162 mm for Marker P1589::LMT2 in Frame 892" value=""/>
          <Param header="0" name=" Error = 134.844 mm for Marker P1589::LMT2 in Frame 891" value=""/>
          <Param header="0" name=" Error = 139.387 mm for Marker P1589::LLTHI in Frame 1265" value=""/>
          <Param header="0" name=" Error = 143.107 mm for Marker P1589::LLTHI in Frame 1441" value=""/>
          <Param header="0" name=" Error = 184.659 mm for Marker P1589::LLTHI in Frame 1426" value=""/>
          <Param header="0" name=" Error = 191.832 mm for Marker P1589::LLTHI in Frame 1440" value=""/>
          <Param header="0" name=" Error = 243.883 mm for Marker P1589::LLTHI in Frame 1439" value=""/>
          <Param header="0" name=" Error = 255.334 mm for Marker P1589::LLTHI in Frame 1427" value=""/>
          <Param header="0" name=" Error = 296.701 mm for Marker P1589::LLTHI in Frame 1438" value=""/>
          <Param header="0" name=" Error = 322.021 mm for Marker P1589::LLTHI in Frame 1428" value=""/>
          <Param header="0" name=" Error = 347.732 mm for Marker P1589::LLTHI in Frame 1437" value=""/>
          <Param header="0" name=" Error = 380.185 mm for Marker P1589::LLTHI in Frame 1429" value=""/>
          <Param header="0" name=" Error = 394.15 mm for Marker P1589::LLTHI in Frame 1436" value=""/>
          <Param header="0" name=" Error = 426.437 mm for Marker P1589::LLTHI in Frame 1430" value=""/>
          <Param header="0" name=" Error = 432.034 mm for Marker P1589::LLTHI in Frame 1435" value=""/>
          <Param header="0" name=" Error = 458 mm for Marker P1589::LLTHI in Frame 1431" value=""/>
          <Param header="0" name=" Error = 459.776 mm for Marker P1589::LLTHI in Frame 1434" value=""/>
          <Param header="0" name=" Error = 473.853 mm for Marker P1589::LLTHI in Frame 1432" value=""/>
          <Param header="0" name=" Error = 474.021 mm for Marker P1589::LLTHI in Frame 1433" value=""/>
        </Parameters>
      </OperationSubType>
    </OperationType>
  </Run>

</Trial>
