('C:\\Git\\runscan_upload\\runscan_upload\\build\\RunScan_upload\\PYZ-00.pyz',
 [('win32com',
   'C:\\Users\\Andreas '
   'Hechler\\AppData\\Local\\Packages\\PythonSoftwareFoundation.Python.3.8_qbz5n2kfra8p0\\LocalCache\\local-packages\\Python38\\site-packages\\win32com\\__init__.py',
   'PYMODULE'),
  ('win32com.server.util',
   'C:\\Users\\Andreas '
   'Hechler\\AppData\\Local\\Packages\\PythonSoftwareFoundation.Python.3.8_qbz5n2kfra8p0\\LocalCache\\local-packages\\Python38\\site-packages\\win32com\\server\\util.py',
   'PYMODULE'),
  ('win32com.server.dispatcher',
   'C:\\Users\\Andreas '
   'Hechler\\AppData\\Local\\Packages\\PythonSoftwareFoundation.Python.3.8_qbz5n2kfra8p0\\LocalCache\\local-packages\\Python38\\site-packages\\win32com\\server\\dispatcher.py',
   'PYMODULE'),
  ('win32traceutil',
   'C:\\Users\\Andreas '
   'Hechler\\AppData\\Local\\Packages\\PythonSoftwareFoundation.Python.3.8_qbz5n2kfra8p0\\LocalCache\\local-packages\\Python38\\site-packages\\win32\\lib\\win32traceutil.py',
   'PYMODULE'),
  ('win32com.util',
   'C:\\Users\\Andreas '
   'Hechler\\AppData\\Local\\Packages\\PythonSoftwareFoundation.Python.3.8_qbz5n2kfra8p0\\LocalCache\\local-packages\\Python38\\site-packages\\win32com\\util.py',
   'PYMODULE'),
  ('win32con',
   'C:\\Users\\Andreas '
   'Hechler\\AppData\\Local\\Packages\\PythonSoftwareFoundation.Python.3.8_qbz5n2kfra8p0\\LocalCache\\local-packages\\Python38\\site-packages\\win32\\lib\\win32con.py',
   'PYMODULE'),
  ('win32com.server.exception',
   'C:\\Users\\Andreas '
   'Hechler\\AppData\\Local\\Packages\\PythonSoftwareFoundation.Python.3.8_qbz5n2kfra8p0\\LocalCache\\local-packages\\Python38\\site-packages\\win32com\\server\\exception.py',
   'PYMODULE'),
  ('winerror',
   'C:\\Users\\Andreas '
   'Hechler\\AppData\\Local\\Packages\\PythonSoftwareFoundation.Python.3.8_qbz5n2kfra8p0\\LocalCache\\local-packages\\Python38\\site-packages\\win32\\lib\\winerror.py',
   'PYMODULE'),
  ('win32com.server.policy',
   'C:\\Users\\Andreas '
   'Hechler\\AppData\\Local\\Packages\\PythonSoftwareFoundation.Python.3.8_qbz5n2kfra8p0\\LocalCache\\local-packages\\Python38\\site-packages\\win32com\\server\\policy.py',
   'PYMODULE'),
  ('win32com.client',
   'C:\\Users\\Andreas '
   'Hechler\\AppData\\Local\\Packages\\PythonSoftwareFoundation.Python.3.8_qbz5n2kfra8p0\\LocalCache\\local-packages\\Python38\\site-packages\\win32com\\client\\__init__.py',
   'PYMODULE'),
  ('win32com.client.makepy',
   'C:\\Users\\Andreas '
   'Hechler\\AppData\\Local\\Packages\\PythonSoftwareFoundation.Python.3.8_qbz5n2kfra8p0\\LocalCache\\local-packages\\Python38\\site-packages\\win32com\\client\\makepy.py',
   'PYMODULE'),
  ('getopt',
   'C:\\Program '
   'Files\\WindowsApps\\PythonSoftwareFoundation.Python.3.8_3.8.2800.0_x64__qbz5n2kfra8p0\\lib\\getopt.py',
   'PYMODULE'),
  ('gettext',
   'C:\\Program '
   'Files\\WindowsApps\\PythonSoftwareFoundation.Python.3.8_3.8.2800.0_x64__qbz5n2kfra8p0\\lib\\gettext.py',
   'PYMODULE'),
  ('copy',
   'C:\\Program '
   'Files\\WindowsApps\\PythonSoftwareFoundation.Python.3.8_3.8.2800.0_x64__qbz5n2kfra8p0\\lib\\copy.py',
   'PYMODULE'),
  ('struct',
   'C:\\Program '
   'Files\\WindowsApps\\PythonSoftwareFoundation.Python.3.8_3.8.2800.0_x64__qbz5n2kfra8p0\\lib\\struct.py',
   'PYMODULE'),
  ('pywin.dialogs.status',
   'C:\\Users\\Andreas '
   'Hechler\\AppData\\Local\\Packages\\PythonSoftwareFoundation.Python.3.8_qbz5n2kfra8p0\\LocalCache\\local-packages\\Python38\\site-packages\\Pythonwin\\pywin\\dialogs\\status.py',
   'PYMODULE'),
  ('_strptime',
   'C:\\Program '
   'Files\\WindowsApps\\PythonSoftwareFoundation.Python.3.8_3.8.2800.0_x64__qbz5n2kfra8p0\\lib\\_strptime.py',
   'PYMODULE'),
  ('calendar',
   'C:\\Program '
   'Files\\WindowsApps\\PythonSoftwareFoundation.Python.3.8_3.8.2800.0_x64__qbz5n2kfra8p0\\lib\\calendar.py',
   'PYMODULE'),
  ('argparse',
   'C:\\Program '
   'Files\\WindowsApps\\PythonSoftwareFoundation.Python.3.8_3.8.2800.0_x64__qbz5n2kfra8p0\\lib\\argparse.py',
   'PYMODULE'),
  ('textwrap',
   'C:\\Program '
   'Files\\WindowsApps\\PythonSoftwareFoundation.Python.3.8_3.8.2800.0_x64__qbz5n2kfra8p0\\lib\\textwrap.py',
   'PYMODULE'),
  ('threading',
   'C:\\Program '
   'Files\\WindowsApps\\PythonSoftwareFoundation.Python.3.8_3.8.2800.0_x64__qbz5n2kfra8p0\\lib\\threading.py',
   'PYMODULE'),
  ('_threading_local',
   'C:\\Program '
   'Files\\WindowsApps\\PythonSoftwareFoundation.Python.3.8_3.8.2800.0_x64__qbz5n2kfra8p0\\lib\\_threading_local.py',
   'PYMODULE'),
  ('contextlib',
   'C:\\Program '
   'Files\\WindowsApps\\PythonSoftwareFoundation.Python.3.8_3.8.2800.0_x64__qbz5n2kfra8p0\\lib\\contextlib.py',
   'PYMODULE'),
  ('pywin.mfc.thread',
   'C:\\Users\\Andreas '
   'Hechler\\AppData\\Local\\Packages\\PythonSoftwareFoundation.Python.3.8_qbz5n2kfra8p0\\LocalCache\\local-packages\\Python38\\site-packages\\Pythonwin\\pywin\\mfc\\thread.py',
   'PYMODULE'),
  ('pywin.mfc.object',
   'C:\\Users\\Andreas '
   'Hechler\\AppData\\Local\\Packages\\PythonSoftwareFoundation.Python.3.8_qbz5n2kfra8p0\\LocalCache\\local-packages\\Python38\\site-packages\\Pythonwin\\pywin\\mfc\\object.py',
   'PYMODULE'),
  ('pywin.mfc.dialog',
   'C:\\Users\\Andreas '
   'Hechler\\AppData\\Local\\Packages\\PythonSoftwareFoundation.Python.3.8_qbz5n2kfra8p0\\LocalCache\\local-packages\\Python38\\site-packages\\Pythonwin\\pywin\\mfc\\dialog.py',
   'PYMODULE'),
  ('pywin.mfc.window',
   'C:\\Users\\Andreas '
   'Hechler\\AppData\\Local\\Packages\\PythonSoftwareFoundation.Python.3.8_qbz5n2kfra8p0\\LocalCache\\local-packages\\Python38\\site-packages\\Pythonwin\\pywin\\mfc\\window.py',
   'PYMODULE'),
  ('pywin.mfc',
   'C:\\Users\\Andreas '
   'Hechler\\AppData\\Local\\Packages\\PythonSoftwareFoundation.Python.3.8_qbz5n2kfra8p0\\LocalCache\\local-packages\\Python38\\site-packages\\Pythonwin\\pywin\\mfc\\__init__.py',
   'PYMODULE'),
  ('pywin.dialogs',
   'C:\\Users\\Andreas '
   'Hechler\\AppData\\Local\\Packages\\PythonSoftwareFoundation.Python.3.8_qbz5n2kfra8p0\\LocalCache\\local-packages\\Python38\\site-packages\\Pythonwin\\pywin\\dialogs\\__init__.py',
   'PYMODULE'),
  ('pywin',
   'C:\\Users\\Andreas '
   'Hechler\\AppData\\Local\\Packages\\PythonSoftwareFoundation.Python.3.8_qbz5n2kfra8p0\\LocalCache\\local-packages\\Python38\\site-packages\\Pythonwin\\pywin\\__init__.py',
   'PYMODULE'),
  ('importlib',
   'C:\\Program '
   'Files\\WindowsApps\\PythonSoftwareFoundation.Python.3.8_3.8.2800.0_x64__qbz5n2kfra8p0\\lib\\importlib\\__init__.py',
   'PYMODULE'),
  ('importlib.machinery',
   'C:\\Program '
   'Files\\WindowsApps\\PythonSoftwareFoundation.Python.3.8_3.8.2800.0_x64__qbz5n2kfra8p0\\lib\\importlib\\machinery.py',
   'PYMODULE'),
  ('importlib._bootstrap_external',
   'C:\\Program '
   'Files\\WindowsApps\\PythonSoftwareFoundation.Python.3.8_3.8.2800.0_x64__qbz5n2kfra8p0\\lib\\importlib\\_bootstrap_external.py',
   'PYMODULE'),
  ('importlib.metadata',
   'C:\\Program '
   'Files\\WindowsApps\\PythonSoftwareFoundation.Python.3.8_3.8.2800.0_x64__qbz5n2kfra8p0\\lib\\importlib\\metadata.py',
   'PYMODULE'),
  ('importlib.abc',
   'C:\\Program '
   'Files\\WindowsApps\\PythonSoftwareFoundation.Python.3.8_3.8.2800.0_x64__qbz5n2kfra8p0\\lib\\importlib\\abc.py',
   'PYMODULE'),
  ('configparser',
   'C:\\Program '
   'Files\\WindowsApps\\PythonSoftwareFoundation.Python.3.8_3.8.2800.0_x64__qbz5n2kfra8p0\\lib\\configparser.py',
   'PYMODULE'),
  ('posixpath',
   'C:\\Program '
   'Files\\WindowsApps\\PythonSoftwareFoundation.Python.3.8_3.8.2800.0_x64__qbz5n2kfra8p0\\lib\\posixpath.py',
   'PYMODULE'),
  ('genericpath',
   'C:\\Program '
   'Files\\WindowsApps\\PythonSoftwareFoundation.Python.3.8_3.8.2800.0_x64__qbz5n2kfra8p0\\lib\\genericpath.py',
   'PYMODULE'),
  ('stat',
   'C:\\Program '
   'Files\\WindowsApps\\PythonSoftwareFoundation.Python.3.8_3.8.2800.0_x64__qbz5n2kfra8p0\\lib\\stat.py',
   'PYMODULE'),
  ('zipfile',
   'C:\\Program '
   'Files\\WindowsApps\\PythonSoftwareFoundation.Python.3.8_3.8.2800.0_x64__qbz5n2kfra8p0\\lib\\zipfile.py',
   'PYMODULE'),
  ('py_compile',
   'C:\\Program '
   'Files\\WindowsApps\\PythonSoftwareFoundation.Python.3.8_3.8.2800.0_x64__qbz5n2kfra8p0\\lib\\py_compile.py',
   'PYMODULE'),
  ('ntpath',
   'C:\\Program '
   'Files\\WindowsApps\\PythonSoftwareFoundation.Python.3.8_3.8.2800.0_x64__qbz5n2kfra8p0\\lib\\ntpath.py',
   'PYMODULE'),
  ('string',
   'C:\\Program '
   'Files\\WindowsApps\\PythonSoftwareFoundation.Python.3.8_3.8.2800.0_x64__qbz5n2kfra8p0\\lib\\string.py',
   'PYMODULE'),
  ('lzma',
   'C:\\Program '
   'Files\\WindowsApps\\PythonSoftwareFoundation.Python.3.8_3.8.2800.0_x64__qbz5n2kfra8p0\\lib\\lzma.py',
   'PYMODULE'),
  ('_compression',
   'C:\\Program '
   'Files\\WindowsApps\\PythonSoftwareFoundation.Python.3.8_3.8.2800.0_x64__qbz5n2kfra8p0\\lib\\_compression.py',
   'PYMODULE'),
  ('bz2',
   'C:\\Program '
   'Files\\WindowsApps\\PythonSoftwareFoundation.Python.3.8_3.8.2800.0_x64__qbz5n2kfra8p0\\lib\\bz2.py',
   'PYMODULE'),
  ('importlib.util',
   'C:\\Program '
   'Files\\WindowsApps\\PythonSoftwareFoundation.Python.3.8_3.8.2800.0_x64__qbz5n2kfra8p0\\lib\\importlib\\util.py',
   'PYMODULE'),
  ('email',
   'C:\\Program '
   'Files\\WindowsApps\\PythonSoftwareFoundation.Python.3.8_3.8.2800.0_x64__qbz5n2kfra8p0\\lib\\email\\__init__.py',
   'PYMODULE'),
  ('email.parser',
   'C:\\Program '
   'Files\\WindowsApps\\PythonSoftwareFoundation.Python.3.8_3.8.2800.0_x64__qbz5n2kfra8p0\\lib\\email\\parser.py',
   'PYMODULE'),
  ('email._policybase',
   'C:\\Program '
   'Files\\WindowsApps\\PythonSoftwareFoundation.Python.3.8_3.8.2800.0_x64__qbz5n2kfra8p0\\lib\\email\\_policybase.py',
   'PYMODULE'),
  ('email.utils',
   'C:\\Program '
   'Files\\WindowsApps\\PythonSoftwareFoundation.Python.3.8_3.8.2800.0_x64__qbz5n2kfra8p0\\lib\\email\\utils.py',
   'PYMODULE'),
  ('email._parseaddr',
   'C:\\Program '
   'Files\\WindowsApps\\PythonSoftwareFoundation.Python.3.8_3.8.2800.0_x64__qbz5n2kfra8p0\\lib\\email\\_parseaddr.py',
   'PYMODULE'),
  ('urllib.parse',
   'C:\\Program '
   'Files\\WindowsApps\\PythonSoftwareFoundation.Python.3.8_3.8.2800.0_x64__qbz5n2kfra8p0\\lib\\urllib\\parse.py',
   'PYMODULE'),
  ('urllib',
   'C:\\Program '
   'Files\\WindowsApps\\PythonSoftwareFoundation.Python.3.8_3.8.2800.0_x64__qbz5n2kfra8p0\\lib\\urllib\\__init__.py',
   'PYMODULE'),
  ('socket',
   'C:\\Program '
   'Files\\WindowsApps\\PythonSoftwareFoundation.Python.3.8_3.8.2800.0_x64__qbz5n2kfra8p0\\lib\\socket.py',
   'PYMODULE'),
  ('selectors',
   'C:\\Program '
   'Files\\WindowsApps\\PythonSoftwareFoundation.Python.3.8_3.8.2800.0_x64__qbz5n2kfra8p0\\lib\\selectors.py',
   'PYMODULE'),
  ('random',
   'C:\\Program '
   'Files\\WindowsApps\\PythonSoftwareFoundation.Python.3.8_3.8.2800.0_x64__qbz5n2kfra8p0\\lib\\random.py',
   'PYMODULE'),
  ('hashlib',
   'C:\\Program '
   'Files\\WindowsApps\\PythonSoftwareFoundation.Python.3.8_3.8.2800.0_x64__qbz5n2kfra8p0\\lib\\hashlib.py',
   'PYMODULE'),
  ('bisect',
   'C:\\Program '
   'Files\\WindowsApps\\PythonSoftwareFoundation.Python.3.8_3.8.2800.0_x64__qbz5n2kfra8p0\\lib\\bisect.py',
   'PYMODULE'),
  ('email.feedparser',
   'C:\\Program '
   'Files\\WindowsApps\\PythonSoftwareFoundation.Python.3.8_3.8.2800.0_x64__qbz5n2kfra8p0\\lib\\email\\feedparser.py',
   'PYMODULE'),
  ('email.message',
   'C:\\Program '
   'Files\\WindowsApps\\PythonSoftwareFoundation.Python.3.8_3.8.2800.0_x64__qbz5n2kfra8p0\\lib\\email\\message.py',
   'PYMODULE'),
  ('email.policy',
   'C:\\Program '
   'Files\\WindowsApps\\PythonSoftwareFoundation.Python.3.8_3.8.2800.0_x64__qbz5n2kfra8p0\\lib\\email\\policy.py',
   'PYMODULE'),
  ('email.contentmanager',
   'C:\\Program '
   'Files\\WindowsApps\\PythonSoftwareFoundation.Python.3.8_3.8.2800.0_x64__qbz5n2kfra8p0\\lib\\email\\contentmanager.py',
   'PYMODULE'),
  ('email.quoprimime',
   'C:\\Program '
   'Files\\WindowsApps\\PythonSoftwareFoundation.Python.3.8_3.8.2800.0_x64__qbz5n2kfra8p0\\lib\\email\\quoprimime.py',
   'PYMODULE'),
  ('email.headerregistry',
   'C:\\Program '
   'Files\\WindowsApps\\PythonSoftwareFoundation.Python.3.8_3.8.2800.0_x64__qbz5n2kfra8p0\\lib\\email\\headerregistry.py',
   'PYMODULE'),
  ('email.iterators',
   'C:\\Program '
   'Files\\WindowsApps\\PythonSoftwareFoundation.Python.3.8_3.8.2800.0_x64__qbz5n2kfra8p0\\lib\\email\\iterators.py',
   'PYMODULE'),
  ('email.generator',
   'C:\\Program '
   'Files\\WindowsApps\\PythonSoftwareFoundation.Python.3.8_3.8.2800.0_x64__qbz5n2kfra8p0\\lib\\email\\generator.py',
   'PYMODULE'),
  ('email._encoded_words',
   'C:\\Program '
   'Files\\WindowsApps\\PythonSoftwareFoundation.Python.3.8_3.8.2800.0_x64__qbz5n2kfra8p0\\lib\\email\\_encoded_words.py',
   'PYMODULE'),
  ('base64',
   'C:\\Program '
   'Files\\WindowsApps\\PythonSoftwareFoundation.Python.3.8_3.8.2800.0_x64__qbz5n2kfra8p0\\lib\\base64.py',
   'PYMODULE'),
  ('quopri',
   'C:\\Program '
   'Files\\WindowsApps\\PythonSoftwareFoundation.Python.3.8_3.8.2800.0_x64__qbz5n2kfra8p0\\lib\\quopri.py',
   'PYMODULE'),
  ('uu',
   'C:\\Program '
   'Files\\WindowsApps\\PythonSoftwareFoundation.Python.3.8_3.8.2800.0_x64__qbz5n2kfra8p0\\lib\\uu.py',
   'PYMODULE'),
  ('optparse',
   'C:\\Program '
   'Files\\WindowsApps\\PythonSoftwareFoundation.Python.3.8_3.8.2800.0_x64__qbz5n2kfra8p0\\lib\\optparse.py',
   'PYMODULE'),
  ('email._header_value_parser',
   'C:\\Program '
   'Files\\WindowsApps\\PythonSoftwareFoundation.Python.3.8_3.8.2800.0_x64__qbz5n2kfra8p0\\lib\\email\\_header_value_parser.py',
   'PYMODULE'),
  ('email.header',
   'C:\\Program '
   'Files\\WindowsApps\\PythonSoftwareFoundation.Python.3.8_3.8.2800.0_x64__qbz5n2kfra8p0\\lib\\email\\header.py',
   'PYMODULE'),
  ('email.base64mime',
   'C:\\Program '
   'Files\\WindowsApps\\PythonSoftwareFoundation.Python.3.8_3.8.2800.0_x64__qbz5n2kfra8p0\\lib\\email\\base64mime.py',
   'PYMODULE'),
  ('email.charset',
   'C:\\Program '
   'Files\\WindowsApps\\PythonSoftwareFoundation.Python.3.8_3.8.2800.0_x64__qbz5n2kfra8p0\\lib\\email\\charset.py',
   'PYMODULE'),
  ('email.encoders',
   'C:\\Program '
   'Files\\WindowsApps\\PythonSoftwareFoundation.Python.3.8_3.8.2800.0_x64__qbz5n2kfra8p0\\lib\\email\\encoders.py',
   'PYMODULE'),
  ('email.errors',
   'C:\\Program '
   'Files\\WindowsApps\\PythonSoftwareFoundation.Python.3.8_3.8.2800.0_x64__qbz5n2kfra8p0\\lib\\email\\errors.py',
   'PYMODULE'),
  ('csv',
   'C:\\Program '
   'Files\\WindowsApps\\PythonSoftwareFoundation.Python.3.8_3.8.2800.0_x64__qbz5n2kfra8p0\\lib\\csv.py',
   'PYMODULE'),
  ('tokenize',
   'C:\\Program '
   'Files\\WindowsApps\\PythonSoftwareFoundation.Python.3.8_3.8.2800.0_x64__qbz5n2kfra8p0\\lib\\tokenize.py',
   'PYMODULE'),
  ('token',
   'C:\\Program '
   'Files\\WindowsApps\\PythonSoftwareFoundation.Python.3.8_3.8.2800.0_x64__qbz5n2kfra8p0\\lib\\token.py',
   'PYMODULE'),
  ('importlib._bootstrap',
   'C:\\Program '
   'Files\\WindowsApps\\PythonSoftwareFoundation.Python.3.8_3.8.2800.0_x64__qbz5n2kfra8p0\\lib\\importlib\\_bootstrap.py',
   'PYMODULE'),
  ('win32com.client.gencache',
   'C:\\Users\\Andreas '
   'Hechler\\AppData\\Local\\Packages\\PythonSoftwareFoundation.Python.3.8_qbz5n2kfra8p0\\LocalCache\\local-packages\\Python38\\site-packages\\win32com\\client\\gencache.py',
   'PYMODULE'),
  ('pickle',
   'C:\\Program '
   'Files\\WindowsApps\\PythonSoftwareFoundation.Python.3.8_3.8.2800.0_x64__qbz5n2kfra8p0\\lib\\pickle.py',
   'PYMODULE'),
  ('pprint',
   'C:\\Program '
   'Files\\WindowsApps\\PythonSoftwareFoundation.Python.3.8_3.8.2800.0_x64__qbz5n2kfra8p0\\lib\\pprint.py',
   'PYMODULE'),
  ('doctest',
   'C:\\Program '
   'Files\\WindowsApps\\PythonSoftwareFoundation.Python.3.8_3.8.2800.0_x64__qbz5n2kfra8p0\\lib\\doctest.py',
   'PYMODULE'),
  ('unittest',
   'C:\\Program '
   'Files\\WindowsApps\\PythonSoftwareFoundation.Python.3.8_3.8.2800.0_x64__qbz5n2kfra8p0\\lib\\unittest\\__init__.py',
   'PYMODULE'),
  ('unittest.signals',
   'C:\\Program '
   'Files\\WindowsApps\\PythonSoftwareFoundation.Python.3.8_3.8.2800.0_x64__qbz5n2kfra8p0\\lib\\unittest\\signals.py',
   'PYMODULE'),
  ('signal',
   'C:\\Program '
   'Files\\WindowsApps\\PythonSoftwareFoundation.Python.3.8_3.8.2800.0_x64__qbz5n2kfra8p0\\lib\\signal.py',
   'PYMODULE'),
  ('unittest.main',
   'C:\\Program '
   'Files\\WindowsApps\\PythonSoftwareFoundation.Python.3.8_3.8.2800.0_x64__qbz5n2kfra8p0\\lib\\unittest\\main.py',
   'PYMODULE'),
  ('unittest.runner',
   'C:\\Program '
   'Files\\WindowsApps\\PythonSoftwareFoundation.Python.3.8_3.8.2800.0_x64__qbz5n2kfra8p0\\lib\\unittest\\runner.py',
   'PYMODULE'),
  ('unittest.loader',
   'C:\\Program '
   'Files\\WindowsApps\\PythonSoftwareFoundation.Python.3.8_3.8.2800.0_x64__qbz5n2kfra8p0\\lib\\unittest\\loader.py',
   'PYMODULE'),
  ('fnmatch',
   'C:\\Program '
   'Files\\WindowsApps\\PythonSoftwareFoundation.Python.3.8_3.8.2800.0_x64__qbz5n2kfra8p0\\lib\\fnmatch.py',
   'PYMODULE'),
  ('unittest.suite',
   'C:\\Program '
   'Files\\WindowsApps\\PythonSoftwareFoundation.Python.3.8_3.8.2800.0_x64__qbz5n2kfra8p0\\lib\\unittest\\suite.py',
   'PYMODULE'),
  ('unittest.case',
   'C:\\Program '
   'Files\\WindowsApps\\PythonSoftwareFoundation.Python.3.8_3.8.2800.0_x64__qbz5n2kfra8p0\\lib\\unittest\\case.py',
   'PYMODULE'),
  ('unittest.async_case',
   'C:\\Program '
   'Files\\WindowsApps\\PythonSoftwareFoundation.Python.3.8_3.8.2800.0_x64__qbz5n2kfra8p0\\lib\\unittest\\async_case.py',
   'PYMODULE'),
  ('asyncio',
   'C:\\Program '
   'Files\\WindowsApps\\PythonSoftwareFoundation.Python.3.8_3.8.2800.0_x64__qbz5n2kfra8p0\\lib\\asyncio\\__init__.py',
   'PYMODULE'),
  ('asyncio.unix_events',
   'C:\\Program '
   'Files\\WindowsApps\\PythonSoftwareFoundation.Python.3.8_3.8.2800.0_x64__qbz5n2kfra8p0\\lib\\asyncio\\unix_events.py',
   'PYMODULE'),
  ('asyncio.log',
   'C:\\Program '
   'Files\\WindowsApps\\PythonSoftwareFoundation.Python.3.8_3.8.2800.0_x64__qbz5n2kfra8p0\\lib\\asyncio\\log.py',
   'PYMODULE'),
  ('subprocess',
   'C:\\Program '
   'Files\\WindowsApps\\PythonSoftwareFoundation.Python.3.8_3.8.2800.0_x64__qbz5n2kfra8p0\\lib\\subprocess.py',
   'PYMODULE'),
  ('asyncio.windows_events',
   'C:\\Program '
   'Files\\WindowsApps\\PythonSoftwareFoundation.Python.3.8_3.8.2800.0_x64__qbz5n2kfra8p0\\lib\\asyncio\\windows_events.py',
   'PYMODULE'),
  ('asyncio.windows_utils',
   'C:\\Program '
   'Files\\WindowsApps\\PythonSoftwareFoundation.Python.3.8_3.8.2800.0_x64__qbz5n2kfra8p0\\lib\\asyncio\\windows_utils.py',
   'PYMODULE'),
  ('asyncio.selector_events',
   'C:\\Program '
   'Files\\WindowsApps\\PythonSoftwareFoundation.Python.3.8_3.8.2800.0_x64__qbz5n2kfra8p0\\lib\\asyncio\\selector_events.py',
   'PYMODULE'),
  ('ssl',
   'C:\\Program '
   'Files\\WindowsApps\\PythonSoftwareFoundation.Python.3.8_3.8.2800.0_x64__qbz5n2kfra8p0\\lib\\ssl.py',
   'PYMODULE'),
  ('asyncio.proactor_events',
   'C:\\Program '
   'Files\\WindowsApps\\PythonSoftwareFoundation.Python.3.8_3.8.2800.0_x64__qbz5n2kfra8p0\\lib\\asyncio\\proactor_events.py',
   'PYMODULE'),
  ('asyncio.base_subprocess',
   'C:\\Program '
   'Files\\WindowsApps\\PythonSoftwareFoundation.Python.3.8_3.8.2800.0_x64__qbz5n2kfra8p0\\lib\\asyncio\\base_subprocess.py',
   'PYMODULE'),
  ('asyncio.subprocess',
   'C:\\Program '
   'Files\\WindowsApps\\PythonSoftwareFoundation.Python.3.8_3.8.2800.0_x64__qbz5n2kfra8p0\\lib\\asyncio\\subprocess.py',
   'PYMODULE'),
  ('asyncio.streams',
   'C:\\Program '
   'Files\\WindowsApps\\PythonSoftwareFoundation.Python.3.8_3.8.2800.0_x64__qbz5n2kfra8p0\\lib\\asyncio\\streams.py',
   'PYMODULE'),
  ('asyncio.queues',
   'C:\\Program '
   'Files\\WindowsApps\\PythonSoftwareFoundation.Python.3.8_3.8.2800.0_x64__qbz5n2kfra8p0\\lib\\asyncio\\queues.py',
   'PYMODULE'),
  ('asyncio.runners',
   'C:\\Program '
   'Files\\WindowsApps\\PythonSoftwareFoundation.Python.3.8_3.8.2800.0_x64__qbz5n2kfra8p0\\lib\\asyncio\\runners.py',
   'PYMODULE'),
  ('asyncio.trsock',
   'C:\\Program '
   'Files\\WindowsApps\\PythonSoftwareFoundation.Python.3.8_3.8.2800.0_x64__qbz5n2kfra8p0\\lib\\asyncio\\trsock.py',
   'PYMODULE'),
  ('asyncio.staggered',
   'C:\\Program '
   'Files\\WindowsApps\\PythonSoftwareFoundation.Python.3.8_3.8.2800.0_x64__qbz5n2kfra8p0\\lib\\asyncio\\staggered.py',
   'PYMODULE'),
  ('asyncio.tasks',
   'C:\\Program '
   'Files\\WindowsApps\\PythonSoftwareFoundation.Python.3.8_3.8.2800.0_x64__qbz5n2kfra8p0\\lib\\asyncio\\tasks.py',
   'PYMODULE'),
  ('contextvars',
   'C:\\Program '
   'Files\\WindowsApps\\PythonSoftwareFoundation.Python.3.8_3.8.2800.0_x64__qbz5n2kfra8p0\\lib\\contextvars.py',
   'PYMODULE'),
  ('concurrent.futures',
   'C:\\Program '
   'Files\\WindowsApps\\PythonSoftwareFoundation.Python.3.8_3.8.2800.0_x64__qbz5n2kfra8p0\\lib\\concurrent\\futures\\__init__.py',
   'PYMODULE'),
  ('concurrent.futures.thread',
   'C:\\Program '
   'Files\\WindowsApps\\PythonSoftwareFoundation.Python.3.8_3.8.2800.0_x64__qbz5n2kfra8p0\\lib\\concurrent\\futures\\thread.py',
   'PYMODULE'),
  ('queue',
   'C:\\Program '
   'Files\\WindowsApps\\PythonSoftwareFoundation.Python.3.8_3.8.2800.0_x64__qbz5n2kfra8p0\\lib\\queue.py',
   'PYMODULE'),
  ('concurrent.futures.process',
   'C:\\Program '
   'Files\\WindowsApps\\PythonSoftwareFoundation.Python.3.8_3.8.2800.0_x64__qbz5n2kfra8p0\\lib\\concurrent\\futures\\process.py',
   'PYMODULE'),
  ('multiprocessing.queues',
   'C:\\Program '
   'Files\\WindowsApps\\PythonSoftwareFoundation.Python.3.8_3.8.2800.0_x64__qbz5n2kfra8p0\\lib\\multiprocessing\\queues.py',
   'PYMODULE'),
  ('multiprocessing.synchronize',
   'C:\\Program '
   'Files\\WindowsApps\\PythonSoftwareFoundation.Python.3.8_3.8.2800.0_x64__qbz5n2kfra8p0\\lib\\multiprocessing\\synchronize.py',
   'PYMODULE'),
  ('multiprocessing.heap',
   'C:\\Program '
   'Files\\WindowsApps\\PythonSoftwareFoundation.Python.3.8_3.8.2800.0_x64__qbz5n2kfra8p0\\lib\\multiprocessing\\heap.py',
   'PYMODULE'),
  ('multiprocessing.resource_tracker',
   'C:\\Program '
   'Files\\WindowsApps\\PythonSoftwareFoundation.Python.3.8_3.8.2800.0_x64__qbz5n2kfra8p0\\lib\\multiprocessing\\resource_tracker.py',
   'PYMODULE'),
  ('multiprocessing.spawn',
   'C:\\Program '
   'Files\\WindowsApps\\PythonSoftwareFoundation.Python.3.8_3.8.2800.0_x64__qbz5n2kfra8p0\\lib\\multiprocessing\\spawn.py',
   'PYMODULE'),
  ('runpy',
   'C:\\Program '
   'Files\\WindowsApps\\PythonSoftwareFoundation.Python.3.8_3.8.2800.0_x64__qbz5n2kfra8p0\\lib\\runpy.py',
   'PYMODULE'),
  ('pkgutil',
   'C:\\Program '
   'Files\\WindowsApps\\PythonSoftwareFoundation.Python.3.8_3.8.2800.0_x64__qbz5n2kfra8p0\\lib\\pkgutil.py',
   'PYMODULE'),
  ('zipimport',
   'C:\\Program '
   'Files\\WindowsApps\\PythonSoftwareFoundation.Python.3.8_3.8.2800.0_x64__qbz5n2kfra8p0\\lib\\zipimport.py',
   'PYMODULE'),
  ('multiprocessing.process',
   'C:\\Program '
   'Files\\WindowsApps\\PythonSoftwareFoundation.Python.3.8_3.8.2800.0_x64__qbz5n2kfra8p0\\lib\\multiprocessing\\process.py',
   'PYMODULE'),
  ('multiprocessing.util',
   'C:\\Program '
   'Files\\WindowsApps\\PythonSoftwareFoundation.Python.3.8_3.8.2800.0_x64__qbz5n2kfra8p0\\lib\\multiprocessing\\util.py',
   'PYMODULE'),
  ('multiprocessing.forkserver',
   'C:\\Program '
   'Files\\WindowsApps\\PythonSoftwareFoundation.Python.3.8_3.8.2800.0_x64__qbz5n2kfra8p0\\lib\\multiprocessing\\forkserver.py',
   'PYMODULE'),
  ('multiprocessing.context',
   'C:\\Program '
   'Files\\WindowsApps\\PythonSoftwareFoundation.Python.3.8_3.8.2800.0_x64__qbz5n2kfra8p0\\lib\\multiprocessing\\context.py',
   'PYMODULE'),
  ('multiprocessing.popen_spawn_win32',
   'C:\\Program '
   'Files\\WindowsApps\\PythonSoftwareFoundation.Python.3.8_3.8.2800.0_x64__qbz5n2kfra8p0\\lib\\multiprocessing\\popen_spawn_win32.py',
   'PYMODULE'),
  ('multiprocessing.popen_forkserver',
   'C:\\Program '
   'Files\\WindowsApps\\PythonSoftwareFoundation.Python.3.8_3.8.2800.0_x64__qbz5n2kfra8p0\\lib\\multiprocessing\\popen_forkserver.py',
   'PYMODULE'),
  ('multiprocessing.popen_spawn_posix',
   'C:\\Program '
   'Files\\WindowsApps\\PythonSoftwareFoundation.Python.3.8_3.8.2800.0_x64__qbz5n2kfra8p0\\lib\\multiprocessing\\popen_spawn_posix.py',
   'PYMODULE'),
  ('multiprocessing.popen_fork',
   'C:\\Program '
   'Files\\WindowsApps\\PythonSoftwareFoundation.Python.3.8_3.8.2800.0_x64__qbz5n2kfra8p0\\lib\\multiprocessing\\popen_fork.py',
   'PYMODULE'),
  ('multiprocessing.sharedctypes',
   'C:\\Program '
   'Files\\WindowsApps\\PythonSoftwareFoundation.Python.3.8_3.8.2800.0_x64__qbz5n2kfra8p0\\lib\\multiprocessing\\sharedctypes.py',
   'PYMODULE'),
  ('ctypes',
   'C:\\Program '
   'Files\\WindowsApps\\PythonSoftwareFoundation.Python.3.8_3.8.2800.0_x64__qbz5n2kfra8p0\\lib\\ctypes\\__init__.py',
   'PYMODULE'),
  ('ctypes._endian',
   'C:\\Program '
   'Files\\WindowsApps\\PythonSoftwareFoundation.Python.3.8_3.8.2800.0_x64__qbz5n2kfra8p0\\lib\\ctypes\\_endian.py',
   'PYMODULE'),
  ('multiprocessing.pool',
   'C:\\Program '
   'Files\\WindowsApps\\PythonSoftwareFoundation.Python.3.8_3.8.2800.0_x64__qbz5n2kfra8p0\\lib\\multiprocessing\\pool.py',
   'PYMODULE'),
  ('multiprocessing.dummy',
   'C:\\Program '
   'Files\\WindowsApps\\PythonSoftwareFoundation.Python.3.8_3.8.2800.0_x64__qbz5n2kfra8p0\\lib\\multiprocessing\\dummy\\__init__.py',
   'PYMODULE'),
  ('multiprocessing.dummy.connection',
   'C:\\Program '
   'Files\\WindowsApps\\PythonSoftwareFoundation.Python.3.8_3.8.2800.0_x64__qbz5n2kfra8p0\\lib\\multiprocessing\\dummy\\connection.py',
   'PYMODULE'),
  ('multiprocessing.managers',
   'C:\\Program '
   'Files\\WindowsApps\\PythonSoftwareFoundation.Python.3.8_3.8.2800.0_x64__qbz5n2kfra8p0\\lib\\multiprocessing\\managers.py',
   'PYMODULE'),
  ('multiprocessing.shared_memory',
   'C:\\Program '
   'Files\\WindowsApps\\PythonSoftwareFoundation.Python.3.8_3.8.2800.0_x64__qbz5n2kfra8p0\\lib\\multiprocessing\\shared_memory.py',
   'PYMODULE'),
  ('secrets',
   'C:\\Program '
   'Files\\WindowsApps\\PythonSoftwareFoundation.Python.3.8_3.8.2800.0_x64__qbz5n2kfra8p0\\lib\\secrets.py',
   'PYMODULE'),
  ('hmac',
   'C:\\Program '
   'Files\\WindowsApps\\PythonSoftwareFoundation.Python.3.8_3.8.2800.0_x64__qbz5n2kfra8p0\\lib\\hmac.py',
   'PYMODULE'),
  ('multiprocessing.reduction',
   'C:\\Program '
   'Files\\WindowsApps\\PythonSoftwareFoundation.Python.3.8_3.8.2800.0_x64__qbz5n2kfra8p0\\lib\\multiprocessing\\reduction.py',
   'PYMODULE'),
  ('multiprocessing.resource_sharer',
   'C:\\Program '
   'Files\\WindowsApps\\PythonSoftwareFoundation.Python.3.8_3.8.2800.0_x64__qbz5n2kfra8p0\\lib\\multiprocessing\\resource_sharer.py',
   'PYMODULE'),
  ('multiprocessing.connection',
   'C:\\Program '
   'Files\\WindowsApps\\PythonSoftwareFoundation.Python.3.8_3.8.2800.0_x64__qbz5n2kfra8p0\\lib\\multiprocessing\\connection.py',
   'PYMODULE'),
  ('xmlrpc.client',
   'C:\\Program '
   'Files\\WindowsApps\\PythonSoftwareFoundation.Python.3.8_3.8.2800.0_x64__qbz5n2kfra8p0\\lib\\xmlrpc\\client.py',
   'PYMODULE'),
  ('xmlrpc',
   'C:\\Program '
   'Files\\WindowsApps\\PythonSoftwareFoundation.Python.3.8_3.8.2800.0_x64__qbz5n2kfra8p0\\lib\\xmlrpc\\__init__.py',
   'PYMODULE'),
  ('xmlrpc.server',
   'C:\\Program '
   'Files\\WindowsApps\\PythonSoftwareFoundation.Python.3.8_3.8.2800.0_x64__qbz5n2kfra8p0\\lib\\xmlrpc\\server.py',
   'PYMODULE'),
  ('pydoc',
   'C:\\Program '
   'Files\\WindowsApps\\PythonSoftwareFoundation.Python.3.8_3.8.2800.0_x64__qbz5n2kfra8p0\\lib\\pydoc.py',
   'PYMODULE'),
  ('webbrowser',
   'C:\\Program '
   'Files\\WindowsApps\\PythonSoftwareFoundation.Python.3.8_3.8.2800.0_x64__qbz5n2kfra8p0\\lib\\webbrowser.py',
   'PYMODULE'),
  ('shlex',
   'C:\\Program '
   'Files\\WindowsApps\\PythonSoftwareFoundation.Python.3.8_3.8.2800.0_x64__qbz5n2kfra8p0\\lib\\shlex.py',
   'PYMODULE'),
  ('pydoc_data.topics',
   'C:\\Program '
   'Files\\WindowsApps\\PythonSoftwareFoundation.Python.3.8_3.8.2800.0_x64__qbz5n2kfra8p0\\lib\\pydoc_data\\topics.py',
   'PYMODULE'),
  ('pydoc_data',
   'C:\\Program '
   'Files\\WindowsApps\\PythonSoftwareFoundation.Python.3.8_3.8.2800.0_x64__qbz5n2kfra8p0\\lib\\pydoc_data\\__init__.py',
   'PYMODULE'),
  ('tty',
   'C:\\Program '
   'Files\\WindowsApps\\PythonSoftwareFoundation.Python.3.8_3.8.2800.0_x64__qbz5n2kfra8p0\\lib\\tty.py',
   'PYMODULE'),
  ('sysconfig',
   'C:\\Program '
   'Files\\WindowsApps\\PythonSoftwareFoundation.Python.3.8_3.8.2800.0_x64__qbz5n2kfra8p0\\lib\\sysconfig.py',
   'PYMODULE'),
  ('_osx_support',
   'C:\\Program '
   'Files\\WindowsApps\\PythonSoftwareFoundation.Python.3.8_3.8.2800.0_x64__qbz5n2kfra8p0\\lib\\_osx_support.py',
   'PYMODULE'),
  ('distutils.log',
   'C:\\Program '
   'Files\\WindowsApps\\PythonSoftwareFoundation.Python.3.8_3.8.2800.0_x64__qbz5n2kfra8p0\\lib\\distutils\\log.py',
   'PYMODULE'),
  ('distutils',
   'C:\\Program '
   'Files\\WindowsApps\\PythonSoftwareFoundation.Python.3.8_3.8.2800.0_x64__qbz5n2kfra8p0\\lib\\distutils\\__init__.py',
   'PYMODULE'),
  ('distutils.archive_util',
   'C:\\Program '
   'Files\\WindowsApps\\PythonSoftwareFoundation.Python.3.8_3.8.2800.0_x64__qbz5n2kfra8p0\\lib\\distutils\\archive_util.py',
   'PYMODULE'),
  ('tarfile',
   'C:\\Program '
   'Files\\WindowsApps\\PythonSoftwareFoundation.Python.3.8_3.8.2800.0_x64__qbz5n2kfra8p0\\lib\\tarfile.py',
   'PYMODULE'),
  ('distutils.dir_util',
   'C:\\Program '
   'Files\\WindowsApps\\PythonSoftwareFoundation.Python.3.8_3.8.2800.0_x64__qbz5n2kfra8p0\\lib\\distutils\\dir_util.py',
   'PYMODULE'),
  ('distutils.file_util',
   'C:\\Program '
   'Files\\WindowsApps\\PythonSoftwareFoundation.Python.3.8_3.8.2800.0_x64__qbz5n2kfra8p0\\lib\\distutils\\file_util.py',
   'PYMODULE'),
  ('distutils.dep_util',
   'C:\\Program '
   'Files\\WindowsApps\\PythonSoftwareFoundation.Python.3.8_3.8.2800.0_x64__qbz5n2kfra8p0\\lib\\distutils\\dep_util.py',
   'PYMODULE'),
  ('distutils.spawn',
   'C:\\Program '
   'Files\\WindowsApps\\PythonSoftwareFoundation.Python.3.8_3.8.2800.0_x64__qbz5n2kfra8p0\\lib\\distutils\\spawn.py',
   'PYMODULE'),
  ('distutils.debug',
   'C:\\Program '
   'Files\\WindowsApps\\PythonSoftwareFoundation.Python.3.8_3.8.2800.0_x64__qbz5n2kfra8p0\\lib\\distutils\\debug.py',
   'PYMODULE'),
  ('distutils.errors',
   'C:\\Program '
   'Files\\WindowsApps\\PythonSoftwareFoundation.Python.3.8_3.8.2800.0_x64__qbz5n2kfra8p0\\lib\\distutils\\errors.py',
   'PYMODULE'),
  ('distutils.sysconfig',
   'C:\\Program '
   'Files\\WindowsApps\\PythonSoftwareFoundation.Python.3.8_3.8.2800.0_x64__qbz5n2kfra8p0\\lib\\distutils\\sysconfig.py',
   'PYMODULE'),
  ('distutils.text_file',
   'C:\\Program '
   'Files\\WindowsApps\\PythonSoftwareFoundation.Python.3.8_3.8.2800.0_x64__qbz5n2kfra8p0\\lib\\distutils\\text_file.py',
   'PYMODULE'),
  ('distutils.util',
   'C:\\Program '
   'Files\\WindowsApps\\PythonSoftwareFoundation.Python.3.8_3.8.2800.0_x64__qbz5n2kfra8p0\\lib\\distutils\\util.py',
   'PYMODULE'),
  ('distutils.filelist',
   'C:\\Program '
   'Files\\WindowsApps\\PythonSoftwareFoundation.Python.3.8_3.8.2800.0_x64__qbz5n2kfra8p0\\lib\\distutils\\filelist.py',
   'PYMODULE'),
  ('platform',
   'C:\\Program '
   'Files\\WindowsApps\\PythonSoftwareFoundation.Python.3.8_3.8.2800.0_x64__qbz5n2kfra8p0\\lib\\platform.py',
   'PYMODULE'),
  ('plistlib',
   'C:\\Program '
   'Files\\WindowsApps\\PythonSoftwareFoundation.Python.3.8_3.8.2800.0_x64__qbz5n2kfra8p0\\lib\\plistlib.py',
   'PYMODULE'),
  ('socketserver',
   'C:\\Program '
   'Files\\WindowsApps\\PythonSoftwareFoundation.Python.3.8_3.8.2800.0_x64__qbz5n2kfra8p0\\lib\\socketserver.py',
   'PYMODULE'),
  ('html',
   'C:\\Program '
   'Files\\WindowsApps\\PythonSoftwareFoundation.Python.3.8_3.8.2800.0_x64__qbz5n2kfra8p0\\lib\\html\\__init__.py',
   'PYMODULE'),
  ('html.entities',
   'C:\\Program '
   'Files\\WindowsApps\\PythonSoftwareFoundation.Python.3.8_3.8.2800.0_x64__qbz5n2kfra8p0\\lib\\html\\entities.py',
   'PYMODULE'),
  ('http.server',
   'C:\\Program '
   'Files\\WindowsApps\\PythonSoftwareFoundation.Python.3.8_3.8.2800.0_x64__qbz5n2kfra8p0\\lib\\http\\server.py',
   'PYMODULE'),
  ('http',
   'C:\\Program '
   'Files\\WindowsApps\\PythonSoftwareFoundation.Python.3.8_3.8.2800.0_x64__qbz5n2kfra8p0\\lib\\http\\__init__.py',
   'PYMODULE'),
  ('mimetypes',
   'C:\\Program '
   'Files\\WindowsApps\\PythonSoftwareFoundation.Python.3.8_3.8.2800.0_x64__qbz5n2kfra8p0\\lib\\mimetypes.py',
   'PYMODULE'),
  ('gzip',
   'C:\\Program '
   'Files\\WindowsApps\\PythonSoftwareFoundation.Python.3.8_3.8.2800.0_x64__qbz5n2kfra8p0\\lib\\gzip.py',
   'PYMODULE'),
  ('xml.parsers.expat',
   'C:\\Program '
   'Files\\WindowsApps\\PythonSoftwareFoundation.Python.3.8_3.8.2800.0_x64__qbz5n2kfra8p0\\lib\\xml\\parsers\\expat.py',
   'PYMODULE'),
  ('xml.parsers',
   'C:\\Program '
   'Files\\WindowsApps\\PythonSoftwareFoundation.Python.3.8_3.8.2800.0_x64__qbz5n2kfra8p0\\lib\\xml\\parsers\\__init__.py',
   'PYMODULE'),
  ('xml',
   'C:\\Program '
   'Files\\WindowsApps\\PythonSoftwareFoundation.Python.3.8_3.8.2800.0_x64__qbz5n2kfra8p0\\lib\\xml\\__init__.py',
   'PYMODULE'),
  ('xml.sax.expatreader',
   'C:\\Program '
   'Files\\WindowsApps\\PythonSoftwareFoundation.Python.3.8_3.8.2800.0_x64__qbz5n2kfra8p0\\lib\\xml\\sax\\expatreader.py',
   'PYMODULE'),
  ('xml.sax.saxutils',
   'C:\\Program '
   'Files\\WindowsApps\\PythonSoftwareFoundation.Python.3.8_3.8.2800.0_x64__qbz5n2kfra8p0\\lib\\xml\\sax\\saxutils.py',
   'PYMODULE'),
  ('urllib.request',
   'C:\\Program '
   'Files\\WindowsApps\\PythonSoftwareFoundation.Python.3.8_3.8.2800.0_x64__qbz5n2kfra8p0\\lib\\urllib\\request.py',
   'PYMODULE'),
  ('getpass',
   'C:\\Program '
   'Files\\WindowsApps\\PythonSoftwareFoundation.Python.3.8_3.8.2800.0_x64__qbz5n2kfra8p0\\lib\\getpass.py',
   'PYMODULE'),
  ('nturl2path',
   'C:\\Program '
   'Files\\WindowsApps\\PythonSoftwareFoundation.Python.3.8_3.8.2800.0_x64__qbz5n2kfra8p0\\lib\\nturl2path.py',
   'PYMODULE'),
  ('ftplib',
   'C:\\Program '
   'Files\\WindowsApps\\PythonSoftwareFoundation.Python.3.8_3.8.2800.0_x64__qbz5n2kfra8p0\\lib\\ftplib.py',
   'PYMODULE'),
  ('netrc',
   'C:\\Program '
   'Files\\WindowsApps\\PythonSoftwareFoundation.Python.3.8_3.8.2800.0_x64__qbz5n2kfra8p0\\lib\\netrc.py',
   'PYMODULE'),
  ('http.cookiejar',
   'C:\\Program '
   'Files\\WindowsApps\\PythonSoftwareFoundation.Python.3.8_3.8.2800.0_x64__qbz5n2kfra8p0\\lib\\http\\cookiejar.py',
   'PYMODULE'),
  ('urllib.response',
   'C:\\Program '
   'Files\\WindowsApps\\PythonSoftwareFoundation.Python.3.8_3.8.2800.0_x64__qbz5n2kfra8p0\\lib\\urllib\\response.py',
   'PYMODULE'),
  ('urllib.error',
   'C:\\Program '
   'Files\\WindowsApps\\PythonSoftwareFoundation.Python.3.8_3.8.2800.0_x64__qbz5n2kfra8p0\\lib\\urllib\\error.py',
   'PYMODULE'),
  ('xml.sax',
   'C:\\Program '
   'Files\\WindowsApps\\PythonSoftwareFoundation.Python.3.8_3.8.2800.0_x64__qbz5n2kfra8p0\\lib\\xml\\sax\\__init__.py',
   'PYMODULE'),
  ('xml.sax.handler',
   'C:\\Program '
   'Files\\WindowsApps\\PythonSoftwareFoundation.Python.3.8_3.8.2800.0_x64__qbz5n2kfra8p0\\lib\\xml\\sax\\handler.py',
   'PYMODULE'),
  ('xml.sax._exceptions',
   'C:\\Program '
   'Files\\WindowsApps\\PythonSoftwareFoundation.Python.3.8_3.8.2800.0_x64__qbz5n2kfra8p0\\lib\\xml\\sax\\_exceptions.py',
   'PYMODULE'),
  ('xml.sax.xmlreader',
   'C:\\Program '
   'Files\\WindowsApps\\PythonSoftwareFoundation.Python.3.8_3.8.2800.0_x64__qbz5n2kfra8p0\\lib\\xml\\sax\\xmlreader.py',
   'PYMODULE'),
  ('http.client',
   'C:\\Program '
   'Files\\WindowsApps\\PythonSoftwareFoundation.Python.3.8_3.8.2800.0_x64__qbz5n2kfra8p0\\lib\\http\\client.py',
   'PYMODULE'),
  ('decimal',
   'C:\\Program '
   'Files\\WindowsApps\\PythonSoftwareFoundation.Python.3.8_3.8.2800.0_x64__qbz5n2kfra8p0\\lib\\decimal.py',
   'PYMODULE'),
  ('_pydecimal',
   'C:\\Program '
   'Files\\WindowsApps\\PythonSoftwareFoundation.Python.3.8_3.8.2800.0_x64__qbz5n2kfra8p0\\lib\\_pydecimal.py',
   'PYMODULE'),
  ('numbers',
   'C:\\Program '
   'Files\\WindowsApps\\PythonSoftwareFoundation.Python.3.8_3.8.2800.0_x64__qbz5n2kfra8p0\\lib\\numbers.py',
   'PYMODULE'),
  ('multiprocessing',
   'C:\\Program '
   'Files\\WindowsApps\\PythonSoftwareFoundation.Python.3.8_3.8.2800.0_x64__qbz5n2kfra8p0\\lib\\multiprocessing\\__init__.py',
   'PYMODULE'),
  ('concurrent.futures._base',
   'C:\\Program '
   'Files\\WindowsApps\\PythonSoftwareFoundation.Python.3.8_3.8.2800.0_x64__qbz5n2kfra8p0\\lib\\concurrent\\futures\\_base.py',
   'PYMODULE'),
  ('concurrent',
   'C:\\Program '
   'Files\\WindowsApps\\PythonSoftwareFoundation.Python.3.8_3.8.2800.0_x64__qbz5n2kfra8p0\\lib\\concurrent\\__init__.py',
   'PYMODULE'),
  ('asyncio.base_tasks',
   'C:\\Program '
   'Files\\WindowsApps\\PythonSoftwareFoundation.Python.3.8_3.8.2800.0_x64__qbz5n2kfra8p0\\lib\\asyncio\\base_tasks.py',
   'PYMODULE'),
  ('asyncio.locks',
   'C:\\Program '
   'Files\\WindowsApps\\PythonSoftwareFoundation.Python.3.8_3.8.2800.0_x64__qbz5n2kfra8p0\\lib\\asyncio\\locks.py',
   'PYMODULE'),
  ('asyncio.sslproto',
   'C:\\Program '
   'Files\\WindowsApps\\PythonSoftwareFoundation.Python.3.8_3.8.2800.0_x64__qbz5n2kfra8p0\\lib\\asyncio\\sslproto.py',
   'PYMODULE'),
  ('asyncio.transports',
   'C:\\Program '
   'Files\\WindowsApps\\PythonSoftwareFoundation.Python.3.8_3.8.2800.0_x64__qbz5n2kfra8p0\\lib\\asyncio\\transports.py',
   'PYMODULE'),
  ('asyncio.base_events',
   'C:\\Program '
   'Files\\WindowsApps\\PythonSoftwareFoundation.Python.3.8_3.8.2800.0_x64__qbz5n2kfra8p0\\lib\\asyncio\\base_events.py',
   'PYMODULE'),
  ('asyncio.protocols',
   'C:\\Program '
   'Files\\WindowsApps\\PythonSoftwareFoundation.Python.3.8_3.8.2800.0_x64__qbz5n2kfra8p0\\lib\\asyncio\\protocols.py',
   'PYMODULE'),
  ('asyncio.futures',
   'C:\\Program '
   'Files\\WindowsApps\\PythonSoftwareFoundation.Python.3.8_3.8.2800.0_x64__qbz5n2kfra8p0\\lib\\asyncio\\futures.py',
   'PYMODULE'),
  ('asyncio.events',
   'C:\\Program '
   'Files\\WindowsApps\\PythonSoftwareFoundation.Python.3.8_3.8.2800.0_x64__qbz5n2kfra8p0\\lib\\asyncio\\events.py',
   'PYMODULE'),
  ('asyncio.exceptions',
   'C:\\Program '
   'Files\\WindowsApps\\PythonSoftwareFoundation.Python.3.8_3.8.2800.0_x64__qbz5n2kfra8p0\\lib\\asyncio\\exceptions.py',
   'PYMODULE'),
  ('asyncio.coroutines',
   'C:\\Program '
   'Files\\WindowsApps\\PythonSoftwareFoundation.Python.3.8_3.8.2800.0_x64__qbz5n2kfra8p0\\lib\\asyncio\\coroutines.py',
   'PYMODULE'),
  ('asyncio.base_futures',
   'C:\\Program '
   'Files\\WindowsApps\\PythonSoftwareFoundation.Python.3.8_3.8.2800.0_x64__qbz5n2kfra8p0\\lib\\asyncio\\base_futures.py',
   'PYMODULE'),
  ('asyncio.format_helpers',
   'C:\\Program '
   'Files\\WindowsApps\\PythonSoftwareFoundation.Python.3.8_3.8.2800.0_x64__qbz5n2kfra8p0\\lib\\asyncio\\format_helpers.py',
   'PYMODULE'),
  ('asyncio.constants',
   'C:\\Program '
   'Files\\WindowsApps\\PythonSoftwareFoundation.Python.3.8_3.8.2800.0_x64__qbz5n2kfra8p0\\lib\\asyncio\\constants.py',
   'PYMODULE'),
  ('unittest.result',
   'C:\\Program '
   'Files\\WindowsApps\\PythonSoftwareFoundation.Python.3.8_3.8.2800.0_x64__qbz5n2kfra8p0\\lib\\unittest\\result.py',
   'PYMODULE'),
  ('unittest.util',
   'C:\\Program '
   'Files\\WindowsApps\\PythonSoftwareFoundation.Python.3.8_3.8.2800.0_x64__qbz5n2kfra8p0\\lib\\unittest\\util.py',
   'PYMODULE'),
  ('pdb',
   'C:\\Program '
   'Files\\WindowsApps\\PythonSoftwareFoundation.Python.3.8_3.8.2800.0_x64__qbz5n2kfra8p0\\lib\\pdb.py',
   'PYMODULE'),
  ('code',
   'C:\\Program '
   'Files\\WindowsApps\\PythonSoftwareFoundation.Python.3.8_3.8.2800.0_x64__qbz5n2kfra8p0\\lib\\code.py',
   'PYMODULE'),
  ('codeop',
   'C:\\Program '
   'Files\\WindowsApps\\PythonSoftwareFoundation.Python.3.8_3.8.2800.0_x64__qbz5n2kfra8p0\\lib\\codeop.py',
   'PYMODULE'),
  ('dis',
   'C:\\Program '
   'Files\\WindowsApps\\PythonSoftwareFoundation.Python.3.8_3.8.2800.0_x64__qbz5n2kfra8p0\\lib\\dis.py',
   'PYMODULE'),
  ('opcode',
   'C:\\Program '
   'Files\\WindowsApps\\PythonSoftwareFoundation.Python.3.8_3.8.2800.0_x64__qbz5n2kfra8p0\\lib\\opcode.py',
   'PYMODULE'),
  ('bdb',
   'C:\\Program '
   'Files\\WindowsApps\\PythonSoftwareFoundation.Python.3.8_3.8.2800.0_x64__qbz5n2kfra8p0\\lib\\bdb.py',
   'PYMODULE'),
  ('cmd',
   'C:\\Program '
   'Files\\WindowsApps\\PythonSoftwareFoundation.Python.3.8_3.8.2800.0_x64__qbz5n2kfra8p0\\lib\\cmd.py',
   'PYMODULE'),
  ('inspect',
   'C:\\Program '
   'Files\\WindowsApps\\PythonSoftwareFoundation.Python.3.8_3.8.2800.0_x64__qbz5n2kfra8p0\\lib\\inspect.py',
   'PYMODULE'),
  ('ast',
   'C:\\Program '
   'Files\\WindowsApps\\PythonSoftwareFoundation.Python.3.8_3.8.2800.0_x64__qbz5n2kfra8p0\\lib\\ast.py',
   'PYMODULE'),
  ('difflib',
   'C:\\Program '
   'Files\\WindowsApps\\PythonSoftwareFoundation.Python.3.8_3.8.2800.0_x64__qbz5n2kfra8p0\\lib\\difflib.py',
   'PYMODULE'),
  ('__future__',
   'C:\\Program '
   'Files\\WindowsApps\\PythonSoftwareFoundation.Python.3.8_3.8.2800.0_x64__qbz5n2kfra8p0\\lib\\__future__.py',
   'PYMODULE'),
  ('_compat_pickle',
   'C:\\Program '
   'Files\\WindowsApps\\PythonSoftwareFoundation.Python.3.8_3.8.2800.0_x64__qbz5n2kfra8p0\\lib\\_compat_pickle.py',
   'PYMODULE'),
  ('glob',
   'C:\\Program '
   'Files\\WindowsApps\\PythonSoftwareFoundation.Python.3.8_3.8.2800.0_x64__qbz5n2kfra8p0\\lib\\glob.py',
   'PYMODULE'),
  ('win32com.client.selecttlb',
   'C:\\Users\\Andreas '
   'Hechler\\AppData\\Local\\Packages\\PythonSoftwareFoundation.Python.3.8_qbz5n2kfra8p0\\LocalCache\\local-packages\\Python38\\site-packages\\win32com\\client\\selecttlb.py',
   'PYMODULE'),
  ('pywin.dialogs.list',
   'C:\\Users\\Andreas '
   'Hechler\\AppData\\Local\\Packages\\PythonSoftwareFoundation.Python.3.8_qbz5n2kfra8p0\\LocalCache\\local-packages\\Python38\\site-packages\\Pythonwin\\pywin\\dialogs\\list.py',
   'PYMODULE'),
  ('commctrl',
   'C:\\Users\\Andreas '
   'Hechler\\AppData\\Local\\Packages\\PythonSoftwareFoundation.Python.3.8_qbz5n2kfra8p0\\LocalCache\\local-packages\\Python38\\site-packages\\win32\\lib\\commctrl.py',
   'PYMODULE'),
  ('win32com.client.genpy',
   'C:\\Users\\Andreas '
   'Hechler\\AppData\\Local\\Packages\\PythonSoftwareFoundation.Python.3.8_qbz5n2kfra8p0\\LocalCache\\local-packages\\Python38\\site-packages\\win32com\\client\\genpy.py',
   'PYMODULE'),
  ('win32com.client.CLSIDToClass',
   'C:\\Users\\Andreas '
   'Hechler\\AppData\\Local\\Packages\\PythonSoftwareFoundation.Python.3.8_qbz5n2kfra8p0\\LocalCache\\local-packages\\Python38\\site-packages\\win32com\\client\\CLSIDToClass.py',
   'PYMODULE'),
  ('win32com.client.dynamic',
   'C:\\Users\\Andreas '
   'Hechler\\AppData\\Local\\Packages\\PythonSoftwareFoundation.Python.3.8_qbz5n2kfra8p0\\LocalCache\\local-packages\\Python38\\site-packages\\win32com\\client\\dynamic.py',
   'PYMODULE'),
  ('win32com.client.build',
   'C:\\Users\\Andreas '
   'Hechler\\AppData\\Local\\Packages\\PythonSoftwareFoundation.Python.3.8_qbz5n2kfra8p0\\LocalCache\\local-packages\\Python38\\site-packages\\win32com\\client\\build.py',
   'PYMODULE'),
  ('pywintypes',
   'C:\\Users\\Andreas '
   'Hechler\\AppData\\Local\\Packages\\PythonSoftwareFoundation.Python.3.8_qbz5n2kfra8p0\\LocalCache\\local-packages\\Python38\\site-packages\\win32\\lib\\pywintypes.py',
   'PYMODULE'),
  ('win32com.server',
   'C:\\Users\\Andreas '
   'Hechler\\AppData\\Local\\Packages\\PythonSoftwareFoundation.Python.3.8_qbz5n2kfra8p0\\LocalCache\\local-packages\\Python38\\site-packages\\win32com\\server\\__init__.py',
   'PYMODULE'),
  ('win32com.universal',
   'C:\\Users\\Andreas '
   'Hechler\\AppData\\Local\\Packages\\PythonSoftwareFoundation.Python.3.8_qbz5n2kfra8p0\\LocalCache\\local-packages\\Python38\\site-packages\\win32com\\universal.py',
   'PYMODULE'),
  ('win32com.client.util',
   'C:\\Users\\Andreas '
   'Hechler\\AppData\\Local\\Packages\\PythonSoftwareFoundation.Python.3.8_qbz5n2kfra8p0\\LocalCache\\local-packages\\Python38\\site-packages\\win32com\\client\\util.py',
   'PYMODULE'),
  ('pythoncom',
   'C:\\Users\\Andreas '
   'Hechler\\AppData\\Local\\Packages\\PythonSoftwareFoundation.Python.3.8_qbz5n2kfra8p0\\LocalCache\\local-packages\\Python38\\site-packages\\pythoncom.py',
   'PYMODULE'),
  ('tempfile',
   'C:\\Program '
   'Files\\WindowsApps\\PythonSoftwareFoundation.Python.3.8_3.8.2800.0_x64__qbz5n2kfra8p0\\lib\\tempfile.py',
   'PYMODULE'),
  ('os',
   'C:\\Program '
   'Files\\WindowsApps\\PythonSoftwareFoundation.Python.3.8_3.8.2800.0_x64__qbz5n2kfra8p0\\lib\\os.py',
   'PYMODULE'),
  ('pkg_resources',
   'C:\\Users\\Andreas '
   'Hechler\\AppData\\Local\\Packages\\PythonSoftwareFoundation.Python.3.8_qbz5n2kfra8p0\\LocalCache\\local-packages\\Python38\\site-packages\\pkg_resources\\__init__.py',
   'PYMODULE'),
  ('packaging.specifiers',
   'C:\\Users\\Andreas '
   'Hechler\\AppData\\Local\\Packages\\PythonSoftwareFoundation.Python.3.8_qbz5n2kfra8p0\\LocalCache\\local-packages\\Python38\\site-packages\\packaging\\specifiers.py',
   'PYMODULE'),
  ('packaging._typing',
   'C:\\Users\\Andreas '
   'Hechler\\AppData\\Local\\Packages\\PythonSoftwareFoundation.Python.3.8_qbz5n2kfra8p0\\LocalCache\\local-packages\\Python38\\site-packages\\packaging\\_typing.py',
   'PYMODULE'),
  ('packaging._compat',
   'C:\\Users\\Andreas '
   'Hechler\\AppData\\Local\\Packages\\PythonSoftwareFoundation.Python.3.8_qbz5n2kfra8p0\\LocalCache\\local-packages\\Python38\\site-packages\\packaging\\_compat.py',
   'PYMODULE'),
  ('packaging.utils',
   'C:\\Users\\Andreas '
   'Hechler\\AppData\\Local\\Packages\\PythonSoftwareFoundation.Python.3.8_qbz5n2kfra8p0\\LocalCache\\local-packages\\Python38\\site-packages\\packaging\\utils.py',
   'PYMODULE'),
  ('packaging._structures',
   'C:\\Users\\Andreas '
   'Hechler\\AppData\\Local\\Packages\\PythonSoftwareFoundation.Python.3.8_qbz5n2kfra8p0\\LocalCache\\local-packages\\Python38\\site-packages\\packaging\\_structures.py',
   'PYMODULE'),
  ('packaging.markers',
   'C:\\Users\\Andreas '
   'Hechler\\AppData\\Local\\Packages\\PythonSoftwareFoundation.Python.3.8_qbz5n2kfra8p0\\LocalCache\\local-packages\\Python38\\site-packages\\packaging\\markers.py',
   'PYMODULE'),
  ('pyparsing',
   'C:\\Users\\Andreas '
   'Hechler\\AppData\\Local\\Packages\\PythonSoftwareFoundation.Python.3.8_qbz5n2kfra8p0\\LocalCache\\local-packages\\Python38\\site-packages\\pyparsing.py',
   'PYMODULE'),
  ('uuid',
   'C:\\Program '
   'Files\\WindowsApps\\PythonSoftwareFoundation.Python.3.8_3.8.2800.0_x64__qbz5n2kfra8p0\\lib\\uuid.py',
   'PYMODULE'),
  ('ctypes.util',
   'C:\\Program '
   'Files\\WindowsApps\\PythonSoftwareFoundation.Python.3.8_3.8.2800.0_x64__qbz5n2kfra8p0\\lib\\ctypes\\util.py',
   'PYMODULE'),
  ('ctypes._aix',
   'C:\\Program '
   'Files\\WindowsApps\\PythonSoftwareFoundation.Python.3.8_3.8.2800.0_x64__qbz5n2kfra8p0\\lib\\ctypes\\_aix.py',
   'PYMODULE'),
  ('ctypes.macholib.dyld',
   'C:\\Program '
   'Files\\WindowsApps\\PythonSoftwareFoundation.Python.3.8_3.8.2800.0_x64__qbz5n2kfra8p0\\lib\\ctypes\\macholib\\dyld.py',
   'PYMODULE'),
  ('ctypes.macholib',
   'C:\\Program '
   'Files\\WindowsApps\\PythonSoftwareFoundation.Python.3.8_3.8.2800.0_x64__qbz5n2kfra8p0\\lib\\ctypes\\macholib\\__init__.py',
   'PYMODULE'),
  ('ctypes.macholib.dylib',
   'C:\\Program '
   'Files\\WindowsApps\\PythonSoftwareFoundation.Python.3.8_3.8.2800.0_x64__qbz5n2kfra8p0\\lib\\ctypes\\macholib\\dylib.py',
   'PYMODULE'),
  ('ctypes.macholib.framework',
   'C:\\Program '
   'Files\\WindowsApps\\PythonSoftwareFoundation.Python.3.8_3.8.2800.0_x64__qbz5n2kfra8p0\\lib\\ctypes\\macholib\\framework.py',
   'PYMODULE'),
  ('netbios',
   'C:\\Users\\Andreas '
   'Hechler\\AppData\\Local\\Packages\\PythonSoftwareFoundation.Python.3.8_qbz5n2kfra8p0\\LocalCache\\local-packages\\Python38\\site-packages\\win32\\lib\\netbios.py',
   'PYMODULE'),
  ('packaging.version',
   'C:\\Users\\Andreas '
   'Hechler\\AppData\\Local\\Packages\\PythonSoftwareFoundation.Python.3.8_qbz5n2kfra8p0\\LocalCache\\local-packages\\Python38\\site-packages\\packaging\\version.py',
   'PYMODULE'),
  ('packaging.tags',
   'C:\\Users\\Andreas '
   'Hechler\\AppData\\Local\\Packages\\PythonSoftwareFoundation.Python.3.8_qbz5n2kfra8p0\\LocalCache\\local-packages\\Python38\\site-packages\\packaging\\tags.py',
   'PYMODULE'),
  ('packaging',
   'C:\\Users\\Andreas '
   'Hechler\\AppData\\Local\\Packages\\PythonSoftwareFoundation.Python.3.8_qbz5n2kfra8p0\\LocalCache\\local-packages\\Python38\\site-packages\\packaging\\__init__.py',
   'PYMODULE'),
  ('packaging.__about__',
   'C:\\Users\\Andreas '
   'Hechler\\AppData\\Local\\Packages\\PythonSoftwareFoundation.Python.3.8_qbz5n2kfra8p0\\LocalCache\\local-packages\\Python38\\site-packages\\packaging\\__about__.py',
   'PYMODULE'),
  ('packaging.requirements',
   'C:\\Users\\Andreas '
   'Hechler\\AppData\\Local\\Packages\\PythonSoftwareFoundation.Python.3.8_qbz5n2kfra8p0\\LocalCache\\local-packages\\Python38\\site-packages\\packaging\\requirements.py',
   'PYMODULE'),
  ('pkg_resources._vendor.packaging.__about__',
   'C:\\Users\\Andreas '
   'Hechler\\AppData\\Local\\Packages\\PythonSoftwareFoundation.Python.3.8_qbz5n2kfra8p0\\LocalCache\\local-packages\\Python38\\site-packages\\pkg_resources\\_vendor\\packaging\\__about__.py',
   'PYMODULE'),
  ('pkg_resources._vendor.packaging.requirements',
   'C:\\Users\\Andreas '
   'Hechler\\AppData\\Local\\Packages\\PythonSoftwareFoundation.Python.3.8_qbz5n2kfra8p0\\LocalCache\\local-packages\\Python38\\site-packages\\pkg_resources\\_vendor\\packaging\\requirements.py',
   'PYMODULE'),
  ('pkg_resources._vendor.packaging._compat',
   'C:\\Users\\Andreas '
   'Hechler\\AppData\\Local\\Packages\\PythonSoftwareFoundation.Python.3.8_qbz5n2kfra8p0\\LocalCache\\local-packages\\Python38\\site-packages\\pkg_resources\\_vendor\\packaging\\_compat.py',
   'PYMODULE'),
  ('pkg_resources._vendor.packaging.tags',
   'C:\\Users\\Andreas '
   'Hechler\\AppData\\Local\\Packages\\PythonSoftwareFoundation.Python.3.8_qbz5n2kfra8p0\\LocalCache\\local-packages\\Python38\\site-packages\\pkg_resources\\_vendor\\packaging\\tags.py',
   'PYMODULE'),
  ('pkg_resources._vendor.appdirs',
   'C:\\Users\\Andreas '
   'Hechler\\AppData\\Local\\Packages\\PythonSoftwareFoundation.Python.3.8_qbz5n2kfra8p0\\LocalCache\\local-packages\\Python38\\site-packages\\pkg_resources\\_vendor\\appdirs.py',
   'PYMODULE'),
  ('win32com.shell.shellcon',
   'C:\\Users\\Andreas '
   'Hechler\\AppData\\Local\\Packages\\PythonSoftwareFoundation.Python.3.8_qbz5n2kfra8p0\\LocalCache\\local-packages\\Python38\\site-packages\\win32comext\\shell\\shellcon.py',
   'PYMODULE'),
  ('win32com.shell',
   'C:\\Users\\Andreas '
   'Hechler\\AppData\\Local\\Packages\\PythonSoftwareFoundation.Python.3.8_qbz5n2kfra8p0\\LocalCache\\local-packages\\Python38\\site-packages\\win32comext\\shell\\__init__.py',
   'PYMODULE'),
  ('pkg_resources._vendor.packaging.utils',
   'C:\\Users\\Andreas '
   'Hechler\\AppData\\Local\\Packages\\PythonSoftwareFoundation.Python.3.8_qbz5n2kfra8p0\\LocalCache\\local-packages\\Python38\\site-packages\\pkg_resources\\_vendor\\packaging\\utils.py',
   'PYMODULE'),
  ('pkg_resources._vendor.packaging.specifiers',
   'C:\\Users\\Andreas '
   'Hechler\\AppData\\Local\\Packages\\PythonSoftwareFoundation.Python.3.8_qbz5n2kfra8p0\\LocalCache\\local-packages\\Python38\\site-packages\\pkg_resources\\_vendor\\packaging\\specifiers.py',
   'PYMODULE'),
  ('pkg_resources._vendor.packaging._typing',
   'C:\\Users\\Andreas '
   'Hechler\\AppData\\Local\\Packages\\PythonSoftwareFoundation.Python.3.8_qbz5n2kfra8p0\\LocalCache\\local-packages\\Python38\\site-packages\\pkg_resources\\_vendor\\packaging\\_typing.py',
   'PYMODULE'),
  ('pkg_resources._vendor.packaging',
   'C:\\Users\\Andreas '
   'Hechler\\AppData\\Local\\Packages\\PythonSoftwareFoundation.Python.3.8_qbz5n2kfra8p0\\LocalCache\\local-packages\\Python38\\site-packages\\pkg_resources\\_vendor\\packaging\\__init__.py',
   'PYMODULE'),
  ('pkg_resources._vendor',
   'C:\\Users\\Andreas '
   'Hechler\\AppData\\Local\\Packages\\PythonSoftwareFoundation.Python.3.8_qbz5n2kfra8p0\\LocalCache\\local-packages\\Python38\\site-packages\\pkg_resources\\_vendor\\__init__.py',
   'PYMODULE'),
  ('pkg_resources._vendor.packaging.version',
   'C:\\Users\\Andreas '
   'Hechler\\AppData\\Local\\Packages\\PythonSoftwareFoundation.Python.3.8_qbz5n2kfra8p0\\LocalCache\\local-packages\\Python38\\site-packages\\pkg_resources\\_vendor\\packaging\\version.py',
   'PYMODULE'),
  ('pkg_resources._vendor.packaging.markers',
   'C:\\Users\\Andreas '
   'Hechler\\AppData\\Local\\Packages\\PythonSoftwareFoundation.Python.3.8_qbz5n2kfra8p0\\LocalCache\\local-packages\\Python38\\site-packages\\pkg_resources\\_vendor\\packaging\\markers.py',
   'PYMODULE'),
  ('pkg_resources._vendor.packaging._structures',
   'C:\\Users\\Andreas '
   'Hechler\\AppData\\Local\\Packages\\PythonSoftwareFoundation.Python.3.8_qbz5n2kfra8p0\\LocalCache\\local-packages\\Python38\\site-packages\\pkg_resources\\_vendor\\packaging\\_structures.py',
   'PYMODULE'),
  ('pkg_resources._vendor.pyparsing',
   'C:\\Users\\Andreas '
   'Hechler\\AppData\\Local\\Packages\\PythonSoftwareFoundation.Python.3.8_qbz5n2kfra8p0\\LocalCache\\local-packages\\Python38\\site-packages\\pkg_resources\\_vendor\\pyparsing.py',
   'PYMODULE'),
  ('pkg_resources.extern',
   'C:\\Users\\Andreas '
   'Hechler\\AppData\\Local\\Packages\\PythonSoftwareFoundation.Python.3.8_qbz5n2kfra8p0\\LocalCache\\local-packages\\Python38\\site-packages\\pkg_resources\\extern\\__init__.py',
   'PYMODULE'),
  ('imp',
   'C:\\Program '
   'Files\\WindowsApps\\PythonSoftwareFoundation.Python.3.8_3.8.2800.0_x64__qbz5n2kfra8p0\\lib\\imp.py',
   'PYMODULE'),
  ('_py_abc',
   'C:\\Program '
   'Files\\WindowsApps\\PythonSoftwareFoundation.Python.3.8_3.8.2800.0_x64__qbz5n2kfra8p0\\lib\\_py_abc.py',
   'PYMODULE'),
  ('stringprep',
   'C:\\Program '
   'Files\\WindowsApps\\PythonSoftwareFoundation.Python.3.8_3.8.2800.0_x64__qbz5n2kfra8p0\\lib\\stringprep.py',
   'PYMODULE'),
  ('tracemalloc',
   'C:\\Program '
   'Files\\WindowsApps\\PythonSoftwareFoundation.Python.3.8_3.8.2800.0_x64__qbz5n2kfra8p0\\lib\\tracemalloc.py',
   'PYMODULE'),
  ('runscan_upload.copy_dirs',
   'C:\\Git\\runscan_upload\\runscan_upload\\copy_dirs.py',
   'PYMODULE'),
  ('runscan_upload',
   'C:\\Git\\runscan_upload\\runscan_upload\\__init__.py',
   'PYMODULE'),
  ('runscan_upload.config',
   'C:\\Git\\runscan_upload\\runscan_upload\\config.py',
   'PYMODULE'),
  ('PySimpleGUI',
   'C:\\Users\\Andreas '
   'Hechler\\AppData\\Local\\Packages\\PythonSoftwareFoundation.Python.3.8_qbz5n2kfra8p0\\LocalCache\\local-packages\\Python38\\site-packages\\PySimpleGUI\\__init__.py',
   'PYMODULE'),
  ('PySimpleGUI.PySimpleGUI',
   'C:\\Users\\Andreas '
   'Hechler\\AppData\\Local\\Packages\\PythonSoftwareFoundation.Python.3.8_qbz5n2kfra8p0\\LocalCache\\local-packages\\Python38\\site-packages\\PySimpleGUI\\PySimpleGUI.py',
   'PYMODULE'),
  ('site',
   'C:\\Users\\Andreas '
   'Hechler\\AppData\\Local\\Packages\\PythonSoftwareFoundation.Python.3.8_qbz5n2kfra8p0\\LocalCache\\local-packages\\Python38\\site-packages\\PyInstaller\\fake-modules\\site.py',
   'PYMODULE'),
  ('json',
   'C:\\Program '
   'Files\\WindowsApps\\PythonSoftwareFoundation.Python.3.8_3.8.2800.0_x64__qbz5n2kfra8p0\\lib\\json\\__init__.py',
   'PYMODULE'),
  ('json.encoder',
   'C:\\Program '
   'Files\\WindowsApps\\PythonSoftwareFoundation.Python.3.8_3.8.2800.0_x64__qbz5n2kfra8p0\\lib\\json\\encoder.py',
   'PYMODULE'),
  ('json.decoder',
   'C:\\Program '
   'Files\\WindowsApps\\PythonSoftwareFoundation.Python.3.8_3.8.2800.0_x64__qbz5n2kfra8p0\\lib\\json\\decoder.py',
   'PYMODULE'),
  ('json.scanner',
   'C:\\Program '
   'Files\\WindowsApps\\PythonSoftwareFoundation.Python.3.8_3.8.2800.0_x64__qbz5n2kfra8p0\\lib\\json\\scanner.py',
   'PYMODULE'),
  ('tkinter.font',
   'C:\\Program '
   'Files\\WindowsApps\\PythonSoftwareFoundation.Python.3.8_3.8.2800.0_x64__qbz5n2kfra8p0\\lib\\tkinter\\font.py',
   'PYMODULE'),
  ('tkinter.scrolledtext',
   'C:\\Program '
   'Files\\WindowsApps\\PythonSoftwareFoundation.Python.3.8_3.8.2800.0_x64__qbz5n2kfra8p0\\lib\\tkinter\\scrolledtext.py',
   'PYMODULE'),
  ('tkinter.constants',
   'C:\\Program '
   'Files\\WindowsApps\\PythonSoftwareFoundation.Python.3.8_3.8.2800.0_x64__qbz5n2kfra8p0\\lib\\tkinter\\constants.py',
   'PYMODULE'),
  ('tkinter.ttk',
   'C:\\Program '
   'Files\\WindowsApps\\PythonSoftwareFoundation.Python.3.8_3.8.2800.0_x64__qbz5n2kfra8p0\\lib\\tkinter\\ttk.py',
   'PYMODULE'),
  ('tkinter.colorchooser',
   'C:\\Program '
   'Files\\WindowsApps\\PythonSoftwareFoundation.Python.3.8_3.8.2800.0_x64__qbz5n2kfra8p0\\lib\\tkinter\\colorchooser.py',
   'PYMODULE'),
  ('tkinter.commondialog',
   'C:\\Program '
   'Files\\WindowsApps\\PythonSoftwareFoundation.Python.3.8_3.8.2800.0_x64__qbz5n2kfra8p0\\lib\\tkinter\\commondialog.py',
   'PYMODULE'),
  ('tkinter.filedialog',
   'C:\\Program '
   'Files\\WindowsApps\\PythonSoftwareFoundation.Python.3.8_3.8.2800.0_x64__qbz5n2kfra8p0\\lib\\tkinter\\filedialog.py',
   'PYMODULE'),
  ('tkinter.simpledialog',
   'C:\\Program '
   'Files\\WindowsApps\\PythonSoftwareFoundation.Python.3.8_3.8.2800.0_x64__qbz5n2kfra8p0\\lib\\tkinter\\simpledialog.py',
   'PYMODULE'),
  ('tkinter.messagebox',
   'C:\\Program '
   'Files\\WindowsApps\\PythonSoftwareFoundation.Python.3.8_3.8.2800.0_x64__qbz5n2kfra8p0\\lib\\tkinter\\messagebox.py',
   'PYMODULE'),
  ('tkinter.dialog',
   'C:\\Program '
   'Files\\WindowsApps\\PythonSoftwareFoundation.Python.3.8_3.8.2800.0_x64__qbz5n2kfra8p0\\lib\\tkinter\\dialog.py',
   'PYMODULE'),
  ('tkinter',
   'C:\\Program '
   'Files\\WindowsApps\\PythonSoftwareFoundation.Python.3.8_3.8.2800.0_x64__qbz5n2kfra8p0\\lib\\tkinter\\__init__.py',
   'PYMODULE'),
  ('isort',
   'C:\\Users\\Andreas '
   'Hechler\\AppData\\Local\\Packages\\PythonSoftwareFoundation.Python.3.8_qbz5n2kfra8p0\\LocalCache\\local-packages\\Python38\\site-packages\\isort\\__init__.py',
   'PYMODULE'),
  ('isort.api',
   'C:\\Users\\Andreas '
   'Hechler\\AppData\\Local\\Packages\\PythonSoftwareFoundation.Python.3.8_qbz5n2kfra8p0\\LocalCache\\local-packages\\Python38\\site-packages\\isort\\api.py',
   'PYMODULE'),
  ('isort.format',
   'C:\\Users\\Andreas '
   'Hechler\\AppData\\Local\\Packages\\PythonSoftwareFoundation.Python.3.8_qbz5n2kfra8p0\\LocalCache\\local-packages\\Python38\\site-packages\\isort\\format.py',
   'PYMODULE'),
  ('colorama',
   'C:\\Users\\Andreas '
   'Hechler\\AppData\\Local\\Packages\\PythonSoftwareFoundation.Python.3.8_qbz5n2kfra8p0\\LocalCache\\local-packages\\Python38\\site-packages\\colorama\\__init__.py',
   'PYMODULE'),
  ('colorama.ansitowin32',
   'C:\\Users\\Andreas '
   'Hechler\\AppData\\Local\\Packages\\PythonSoftwareFoundation.Python.3.8_qbz5n2kfra8p0\\LocalCache\\local-packages\\Python38\\site-packages\\colorama\\ansitowin32.py',
   'PYMODULE'),
  ('colorama.winterm',
   'C:\\Users\\Andreas '
   'Hechler\\AppData\\Local\\Packages\\PythonSoftwareFoundation.Python.3.8_qbz5n2kfra8p0\\LocalCache\\local-packages\\Python38\\site-packages\\colorama\\winterm.py',
   'PYMODULE'),
  ('colorama.ansi',
   'C:\\Users\\Andreas '
   'Hechler\\AppData\\Local\\Packages\\PythonSoftwareFoundation.Python.3.8_qbz5n2kfra8p0\\LocalCache\\local-packages\\Python38\\site-packages\\colorama\\ansi.py',
   'PYMODULE'),
  ('colorama.initialise',
   'C:\\Users\\Andreas '
   'Hechler\\AppData\\Local\\Packages\\PythonSoftwareFoundation.Python.3.8_qbz5n2kfra8p0\\LocalCache\\local-packages\\Python38\\site-packages\\colorama\\initialise.py',
   'PYMODULE'),
  ('colorama.win32',
   'C:\\Users\\Andreas '
   'Hechler\\AppData\\Local\\Packages\\PythonSoftwareFoundation.Python.3.8_qbz5n2kfra8p0\\LocalCache\\local-packages\\Python38\\site-packages\\colorama\\win32.py',
   'PYMODULE'),
  ('ctypes.wintypes',
   'C:\\Program '
   'Files\\WindowsApps\\PythonSoftwareFoundation.Python.3.8_3.8.2800.0_x64__qbz5n2kfra8p0\\lib\\ctypes\\wintypes.py',
   'PYMODULE'),
  ('isort.exceptions',
   'C:\\Users\\Andreas '
   'Hechler\\AppData\\Local\\Packages\\PythonSoftwareFoundation.Python.3.8_qbz5n2kfra8p0\\LocalCache\\local-packages\\Python38\\site-packages\\isort\\exceptions.py',
   'PYMODULE'),
  ('isort.profiles',
   'C:\\Users\\Andreas '
   'Hechler\\AppData\\Local\\Packages\\PythonSoftwareFoundation.Python.3.8_qbz5n2kfra8p0\\LocalCache\\local-packages\\Python38\\site-packages\\isort\\profiles.py',
   'PYMODULE'),
  ('isort.identify',
   'C:\\Users\\Andreas '
   'Hechler\\AppData\\Local\\Packages\\PythonSoftwareFoundation.Python.3.8_qbz5n2kfra8p0\\LocalCache\\local-packages\\Python38\\site-packages\\isort\\identify.py',
   'PYMODULE'),
  ('isort.comments',
   'C:\\Users\\Andreas '
   'Hechler\\AppData\\Local\\Packages\\PythonSoftwareFoundation.Python.3.8_qbz5n2kfra8p0\\LocalCache\\local-packages\\Python38\\site-packages\\isort\\comments.py',
   'PYMODULE'),
  ('isort.io',
   'C:\\Users\\Andreas '
   'Hechler\\AppData\\Local\\Packages\\PythonSoftwareFoundation.Python.3.8_qbz5n2kfra8p0\\LocalCache\\local-packages\\Python38\\site-packages\\isort\\io.py',
   'PYMODULE'),
  ('isort._future',
   'C:\\Users\\Andreas '
   'Hechler\\AppData\\Local\\Packages\\PythonSoftwareFoundation.Python.3.8_qbz5n2kfra8p0\\LocalCache\\local-packages\\Python38\\site-packages\\isort\\_future\\__init__.py',
   'PYMODULE'),
  ('dataclasses',
   'C:\\Program '
   'Files\\WindowsApps\\PythonSoftwareFoundation.Python.3.8_3.8.2800.0_x64__qbz5n2kfra8p0\\lib\\dataclasses.py',
   'PYMODULE'),
  ('isort._future._dataclasses',
   'C:\\Users\\Andreas '
   'Hechler\\AppData\\Local\\Packages\\PythonSoftwareFoundation.Python.3.8_qbz5n2kfra8p0\\LocalCache\\local-packages\\Python38\\site-packages\\isort\\_future\\_dataclasses.py',
   'PYMODULE'),
  ('isort.files',
   'C:\\Users\\Andreas '
   'Hechler\\AppData\\Local\\Packages\\PythonSoftwareFoundation.Python.3.8_qbz5n2kfra8p0\\LocalCache\\local-packages\\Python38\\site-packages\\isort\\files.py',
   'PYMODULE'),
  ('isort.core',
   'C:\\Users\\Andreas '
   'Hechler\\AppData\\Local\\Packages\\PythonSoftwareFoundation.Python.3.8_qbz5n2kfra8p0\\LocalCache\\local-packages\\Python38\\site-packages\\isort\\core.py',
   'PYMODULE'),
  ('isort.literal',
   'C:\\Users\\Andreas '
   'Hechler\\AppData\\Local\\Packages\\PythonSoftwareFoundation.Python.3.8_qbz5n2kfra8p0\\LocalCache\\local-packages\\Python38\\site-packages\\isort\\literal.py',
   'PYMODULE'),
  ('isort.output',
   'C:\\Users\\Andreas '
   'Hechler\\AppData\\Local\\Packages\\PythonSoftwareFoundation.Python.3.8_qbz5n2kfra8p0\\LocalCache\\local-packages\\Python38\\site-packages\\isort\\output.py',
   'PYMODULE'),
  ('isort.wrap',
   'C:\\Users\\Andreas '
   'Hechler\\AppData\\Local\\Packages\\PythonSoftwareFoundation.Python.3.8_qbz5n2kfra8p0\\LocalCache\\local-packages\\Python38\\site-packages\\isort\\wrap.py',
   'PYMODULE'),
  ('isort.wrap_modes',
   'C:\\Users\\Andreas '
   'Hechler\\AppData\\Local\\Packages\\PythonSoftwareFoundation.Python.3.8_qbz5n2kfra8p0\\LocalCache\\local-packages\\Python38\\site-packages\\isort\\wrap_modes.py',
   'PYMODULE'),
  ('isort.sorting',
   'C:\\Users\\Andreas '
   'Hechler\\AppData\\Local\\Packages\\PythonSoftwareFoundation.Python.3.8_qbz5n2kfra8p0\\LocalCache\\local-packages\\Python38\\site-packages\\isort\\sorting.py',
   'PYMODULE'),
  ('isort.parse',
   'C:\\Users\\Andreas '
   'Hechler\\AppData\\Local\\Packages\\PythonSoftwareFoundation.Python.3.8_qbz5n2kfra8p0\\LocalCache\\local-packages\\Python38\\site-packages\\isort\\parse.py',
   'PYMODULE'),
  ('mypy_extensions',
   'C:\\Users\\Andreas '
   'Hechler\\AppData\\Local\\Packages\\PythonSoftwareFoundation.Python.3.8_qbz5n2kfra8p0\\LocalCache\\local-packages\\Python38\\site-packages\\mypy_extensions.py',
   'PYMODULE'),
  ('isort.deprecated.finders',
   'C:\\Users\\Andreas '
   'Hechler\\AppData\\Local\\Packages\\PythonSoftwareFoundation.Python.3.8_qbz5n2kfra8p0\\LocalCache\\local-packages\\Python38\\site-packages\\isort\\deprecated\\finders.py',
   'PYMODULE'),
  ('isort.deprecated',
   'C:\\Users\\Andreas '
   'Hechler\\AppData\\Local\\Packages\\PythonSoftwareFoundation.Python.3.8_qbz5n2kfra8p0\\LocalCache\\local-packages\\Python38\\site-packages\\isort\\deprecated\\__init__.py',
   'PYMODULE'),
  ('isort.utils',
   'C:\\Users\\Andreas '
   'Hechler\\AppData\\Local\\Packages\\PythonSoftwareFoundation.Python.3.8_qbz5n2kfra8p0\\LocalCache\\local-packages\\Python38\\site-packages\\isort\\utils.py',
   'PYMODULE'),
  ('isort.sections',
   'C:\\Users\\Andreas '
   'Hechler\\AppData\\Local\\Packages\\PythonSoftwareFoundation.Python.3.8_qbz5n2kfra8p0\\LocalCache\\local-packages\\Python38\\site-packages\\isort\\sections.py',
   'PYMODULE'),
  ('isort.place',
   'C:\\Users\\Andreas '
   'Hechler\\AppData\\Local\\Packages\\PythonSoftwareFoundation.Python.3.8_qbz5n2kfra8p0\\LocalCache\\local-packages\\Python38\\site-packages\\isort\\place.py',
   'PYMODULE'),
  ('isort._version',
   'C:\\Users\\Andreas '
   'Hechler\\AppData\\Local\\Packages\\PythonSoftwareFoundation.Python.3.8_qbz5n2kfra8p0\\LocalCache\\local-packages\\Python38\\site-packages\\isort\\_version.py',
   'PYMODULE'),
  ('isort.settings',
   'C:\\Users\\Andreas '
   'Hechler\\AppData\\Local\\Packages\\PythonSoftwareFoundation.Python.3.8_qbz5n2kfra8p0\\LocalCache\\local-packages\\Python38\\site-packages\\isort\\settings.py',
   'PYMODULE'),
  ('isort._vendored.toml',
   'C:\\Users\\Andreas '
   'Hechler\\AppData\\Local\\Packages\\PythonSoftwareFoundation.Python.3.8_qbz5n2kfra8p0\\LocalCache\\local-packages\\Python38\\site-packages\\isort\\_vendored\\toml\\__init__.py',
   'PYMODULE'),
  ('isort._vendored.toml.encoder',
   'C:\\Users\\Andreas '
   'Hechler\\AppData\\Local\\Packages\\PythonSoftwareFoundation.Python.3.8_qbz5n2kfra8p0\\LocalCache\\local-packages\\Python38\\site-packages\\isort\\_vendored\\toml\\encoder.py',
   'PYMODULE'),
  ('toml.decoder',
   'C:\\Users\\Andreas '
   'Hechler\\AppData\\Local\\Packages\\PythonSoftwareFoundation.Python.3.8_qbz5n2kfra8p0\\LocalCache\\local-packages\\Python38\\site-packages\\toml\\decoder.py',
   'PYMODULE'),
  ('toml',
   'C:\\Users\\Andreas '
   'Hechler\\AppData\\Local\\Packages\\PythonSoftwareFoundation.Python.3.8_qbz5n2kfra8p0\\LocalCache\\local-packages\\Python38\\site-packages\\toml\\__init__.py',
   'PYMODULE'),
  ('toml.encoder',
   'C:\\Users\\Andreas '
   'Hechler\\AppData\\Local\\Packages\\PythonSoftwareFoundation.Python.3.8_qbz5n2kfra8p0\\LocalCache\\local-packages\\Python38\\site-packages\\toml\\encoder.py',
   'PYMODULE'),
  ('toml.tz',
   'C:\\Users\\Andreas '
   'Hechler\\AppData\\Local\\Packages\\PythonSoftwareFoundation.Python.3.8_qbz5n2kfra8p0\\LocalCache\\local-packages\\Python38\\site-packages\\toml\\tz.py',
   'PYMODULE'),
  ('numpy',
   'C:\\Users\\Andreas '
   'Hechler\\AppData\\Local\\Packages\\PythonSoftwareFoundation.Python.3.8_qbz5n2kfra8p0\\LocalCache\\local-packages\\Python38\\site-packages\\numpy\\__init__.py',
   'PYMODULE'),
  ('numpy.core._dtype_ctypes',
   'C:\\Users\\Andreas '
   'Hechler\\AppData\\Local\\Packages\\PythonSoftwareFoundation.Python.3.8_qbz5n2kfra8p0\\LocalCache\\local-packages\\Python38\\site-packages\\numpy\\core\\_dtype_ctypes.py',
   'PYMODULE'),
  ('numpy._pytesttester',
   'C:\\Users\\Andreas '
   'Hechler\\AppData\\Local\\Packages\\PythonSoftwareFoundation.Python.3.8_qbz5n2kfra8p0\\LocalCache\\local-packages\\Python38\\site-packages\\numpy\\_pytesttester.py',
   'PYMODULE'),
  ('numpy.testing',
   'C:\\Users\\Andreas '
   'Hechler\\AppData\\Local\\Packages\\PythonSoftwareFoundation.Python.3.8_qbz5n2kfra8p0\\LocalCache\\local-packages\\Python38\\site-packages\\numpy\\testing\\__init__.py',
   'PYMODULE'),
  ('numpy.testing._private.nosetester',
   'C:\\Users\\Andreas '
   'Hechler\\AppData\\Local\\Packages\\PythonSoftwareFoundation.Python.3.8_qbz5n2kfra8p0\\LocalCache\\local-packages\\Python38\\site-packages\\numpy\\testing\\_private\\nosetester.py',
   'PYMODULE'),
  ('numpy.testing._private.noseclasses',
   'C:\\Users\\Andreas '
   'Hechler\\AppData\\Local\\Packages\\PythonSoftwareFoundation.Python.3.8_qbz5n2kfra8p0\\LocalCache\\local-packages\\Python38\\site-packages\\numpy\\testing\\_private\\noseclasses.py',
   'PYMODULE'),
  ('numpy.testing._private.decorators',
   'C:\\Users\\Andreas '
   'Hechler\\AppData\\Local\\Packages\\PythonSoftwareFoundation.Python.3.8_qbz5n2kfra8p0\\LocalCache\\local-packages\\Python38\\site-packages\\numpy\\testing\\_private\\decorators.py',
   'PYMODULE'),
  ('numpy.testing._private.parameterized',
   'C:\\Users\\Andreas '
   'Hechler\\AppData\\Local\\Packages\\PythonSoftwareFoundation.Python.3.8_qbz5n2kfra8p0\\LocalCache\\local-packages\\Python38\\site-packages\\numpy\\testing\\_private\\parameterized.py',
   'PYMODULE'),
  ('numpy.testing._private',
   'C:\\Users\\Andreas '
   'Hechler\\AppData\\Local\\Packages\\PythonSoftwareFoundation.Python.3.8_qbz5n2kfra8p0\\LocalCache\\local-packages\\Python38\\site-packages\\numpy\\testing\\_private\\__init__.py',
   'PYMODULE'),
  ('numpy.testing._private.utils',
   'C:\\Users\\Andreas '
   'Hechler\\AppData\\Local\\Packages\\PythonSoftwareFoundation.Python.3.8_qbz5n2kfra8p0\\LocalCache\\local-packages\\Python38\\site-packages\\numpy\\testing\\_private\\utils.py',
   'PYMODULE'),
  ('numpy.core.fromnumeric',
   'C:\\Users\\Andreas '
   'Hechler\\AppData\\Local\\Packages\\PythonSoftwareFoundation.Python.3.8_qbz5n2kfra8p0\\LocalCache\\local-packages\\Python38\\site-packages\\numpy\\core\\fromnumeric.py',
   'PYMODULE'),
  ('numpy.core._methods',
   'C:\\Users\\Andreas '
   'Hechler\\AppData\\Local\\Packages\\PythonSoftwareFoundation.Python.3.8_qbz5n2kfra8p0\\LocalCache\\local-packages\\Python38\\site-packages\\numpy\\core\\_methods.py',
   'PYMODULE'),
  ('numpy.core._exceptions',
   'C:\\Users\\Andreas '
   'Hechler\\AppData\\Local\\Packages\\PythonSoftwareFoundation.Python.3.8_qbz5n2kfra8p0\\LocalCache\\local-packages\\Python38\\site-packages\\numpy\\core\\_exceptions.py',
   'PYMODULE'),
  ('numpy.core._asarray',
   'C:\\Users\\Andreas '
   'Hechler\\AppData\\Local\\Packages\\PythonSoftwareFoundation.Python.3.8_qbz5n2kfra8p0\\LocalCache\\local-packages\\Python38\\site-packages\\numpy\\core\\_asarray.py',
   'PYMODULE'),
  ('numpy.core.umath',
   'C:\\Users\\Andreas '
   'Hechler\\AppData\\Local\\Packages\\PythonSoftwareFoundation.Python.3.8_qbz5n2kfra8p0\\LocalCache\\local-packages\\Python38\\site-packages\\numpy\\core\\umath.py',
   'PYMODULE'),
  ('numpy.core.overrides',
   'C:\\Users\\Andreas '
   'Hechler\\AppData\\Local\\Packages\\PythonSoftwareFoundation.Python.3.8_qbz5n2kfra8p0\\LocalCache\\local-packages\\Python38\\site-packages\\numpy\\core\\overrides.py',
   'PYMODULE'),
  ('numpy.compat._inspect',
   'C:\\Users\\Andreas '
   'Hechler\\AppData\\Local\\Packages\\PythonSoftwareFoundation.Python.3.8_qbz5n2kfra8p0\\LocalCache\\local-packages\\Python38\\site-packages\\numpy\\compat\\_inspect.py',
   'PYMODULE'),
  ('numpy.core.multiarray',
   'C:\\Users\\Andreas '
   'Hechler\\AppData\\Local\\Packages\\PythonSoftwareFoundation.Python.3.8_qbz5n2kfra8p0\\LocalCache\\local-packages\\Python38\\site-packages\\numpy\\core\\multiarray.py',
   'PYMODULE'),
  ('numpy.core.numerictypes',
   'C:\\Users\\Andreas '
   'Hechler\\AppData\\Local\\Packages\\PythonSoftwareFoundation.Python.3.8_qbz5n2kfra8p0\\LocalCache\\local-packages\\Python38\\site-packages\\numpy\\core\\numerictypes.py',
   'PYMODULE'),
  ('numpy.core._dtype',
   'C:\\Users\\Andreas '
   'Hechler\\AppData\\Local\\Packages\\PythonSoftwareFoundation.Python.3.8_qbz5n2kfra8p0\\LocalCache\\local-packages\\Python38\\site-packages\\numpy\\core\\_dtype.py',
   'PYMODULE'),
  ('numpy.core._type_aliases',
   'C:\\Users\\Andreas '
   'Hechler\\AppData\\Local\\Packages\\PythonSoftwareFoundation.Python.3.8_qbz5n2kfra8p0\\LocalCache\\local-packages\\Python38\\site-packages\\numpy\\core\\_type_aliases.py',
   'PYMODULE'),
  ('numpy.core._string_helpers',
   'C:\\Users\\Andreas '
   'Hechler\\AppData\\Local\\Packages\\PythonSoftwareFoundation.Python.3.8_qbz5n2kfra8p0\\LocalCache\\local-packages\\Python38\\site-packages\\numpy\\core\\_string_helpers.py',
   'PYMODULE'),
  ('numpy.matrixlib',
   'C:\\Users\\Andreas '
   'Hechler\\AppData\\Local\\Packages\\PythonSoftwareFoundation.Python.3.8_qbz5n2kfra8p0\\LocalCache\\local-packages\\Python38\\site-packages\\numpy\\matrixlib\\__init__.py',
   'PYMODULE'),
  ('numpy.matrixlib.defmatrix',
   'C:\\Users\\Andreas '
   'Hechler\\AppData\\Local\\Packages\\PythonSoftwareFoundation.Python.3.8_qbz5n2kfra8p0\\LocalCache\\local-packages\\Python38\\site-packages\\numpy\\matrixlib\\defmatrix.py',
   'PYMODULE'),
  ('numpy.dual',
   'C:\\Users\\Andreas '
   'Hechler\\AppData\\Local\\Packages\\PythonSoftwareFoundation.Python.3.8_qbz5n2kfra8p0\\LocalCache\\local-packages\\Python38\\site-packages\\numpy\\dual.py',
   'PYMODULE'),
  ('numpy.core.numeric',
   'C:\\Users\\Andreas '
   'Hechler\\AppData\\Local\\Packages\\PythonSoftwareFoundation.Python.3.8_qbz5n2kfra8p0\\LocalCache\\local-packages\\Python38\\site-packages\\numpy\\core\\numeric.py',
   'PYMODULE'),
  ('numpy.core.arrayprint',
   'C:\\Users\\Andreas '
   'Hechler\\AppData\\Local\\Packages\\PythonSoftwareFoundation.Python.3.8_qbz5n2kfra8p0\\LocalCache\\local-packages\\Python38\\site-packages\\numpy\\core\\arrayprint.py',
   'PYMODULE'),
  ('_dummy_thread',
   'C:\\Program '
   'Files\\WindowsApps\\PythonSoftwareFoundation.Python.3.8_3.8.2800.0_x64__qbz5n2kfra8p0\\lib\\_dummy_thread.py',
   'PYMODULE'),
  ('numpy.core._ufunc_config',
   'C:\\Users\\Andreas '
   'Hechler\\AppData\\Local\\Packages\\PythonSoftwareFoundation.Python.3.8_qbz5n2kfra8p0\\LocalCache\\local-packages\\Python38\\site-packages\\numpy\\core\\_ufunc_config.py',
   'PYMODULE'),
  ('numpy.core.shape_base',
   'C:\\Users\\Andreas '
   'Hechler\\AppData\\Local\\Packages\\PythonSoftwareFoundation.Python.3.8_qbz5n2kfra8p0\\LocalCache\\local-packages\\Python38\\site-packages\\numpy\\core\\shape_base.py',
   'PYMODULE'),
  ('numpy.ma',
   'C:\\Users\\Andreas '
   'Hechler\\AppData\\Local\\Packages\\PythonSoftwareFoundation.Python.3.8_qbz5n2kfra8p0\\LocalCache\\local-packages\\Python38\\site-packages\\numpy\\ma\\__init__.py',
   'PYMODULE'),
  ('numpy.ma.extras',
   'C:\\Users\\Andreas '
   'Hechler\\AppData\\Local\\Packages\\PythonSoftwareFoundation.Python.3.8_qbz5n2kfra8p0\\LocalCache\\local-packages\\Python38\\site-packages\\numpy\\ma\\extras.py',
   'PYMODULE'),
  ('numpy.lib.index_tricks',
   'C:\\Users\\Andreas '
   'Hechler\\AppData\\Local\\Packages\\PythonSoftwareFoundation.Python.3.8_qbz5n2kfra8p0\\LocalCache\\local-packages\\Python38\\site-packages\\numpy\\lib\\index_tricks.py',
   'PYMODULE'),
  ('numpy.lib.stride_tricks',
   'C:\\Users\\Andreas '
   'Hechler\\AppData\\Local\\Packages\\PythonSoftwareFoundation.Python.3.8_qbz5n2kfra8p0\\LocalCache\\local-packages\\Python38\\site-packages\\numpy\\lib\\stride_tricks.py',
   'PYMODULE'),
  ('numpy.lib.function_base',
   'C:\\Users\\Andreas '
   'Hechler\\AppData\\Local\\Packages\\PythonSoftwareFoundation.Python.3.8_qbz5n2kfra8p0\\LocalCache\\local-packages\\Python38\\site-packages\\numpy\\lib\\function_base.py',
   'PYMODULE'),
  ('numpy.lib.histograms',
   'C:\\Users\\Andreas '
   'Hechler\\AppData\\Local\\Packages\\PythonSoftwareFoundation.Python.3.8_qbz5n2kfra8p0\\LocalCache\\local-packages\\Python38\\site-packages\\numpy\\lib\\histograms.py',
   'PYMODULE'),
  ('numpy.lib.twodim_base',
   'C:\\Users\\Andreas '
   'Hechler\\AppData\\Local\\Packages\\PythonSoftwareFoundation.Python.3.8_qbz5n2kfra8p0\\LocalCache\\local-packages\\Python38\\site-packages\\numpy\\lib\\twodim_base.py',
   'PYMODULE'),
  ('numpy.core.function_base',
   'C:\\Users\\Andreas '
   'Hechler\\AppData\\Local\\Packages\\PythonSoftwareFoundation.Python.3.8_qbz5n2kfra8p0\\LocalCache\\local-packages\\Python38\\site-packages\\numpy\\core\\function_base.py',
   'PYMODULE'),
  ('numpy.ma.core',
   'C:\\Users\\Andreas '
   'Hechler\\AppData\\Local\\Packages\\PythonSoftwareFoundation.Python.3.8_qbz5n2kfra8p0\\LocalCache\\local-packages\\Python38\\site-packages\\numpy\\ma\\core.py',
   'PYMODULE'),
  ('numpy.core._internal',
   'C:\\Users\\Andreas '
   'Hechler\\AppData\\Local\\Packages\\PythonSoftwareFoundation.Python.3.8_qbz5n2kfra8p0\\LocalCache\\local-packages\\Python38\\site-packages\\numpy\\core\\_internal.py',
   'PYMODULE'),
  ('numpy.ctypeslib',
   'C:\\Users\\Andreas '
   'Hechler\\AppData\\Local\\Packages\\PythonSoftwareFoundation.Python.3.8_qbz5n2kfra8p0\\LocalCache\\local-packages\\Python38\\site-packages\\numpy\\ctypeslib.py',
   'PYMODULE'),
  ('numpy.random',
   'C:\\Users\\Andreas '
   'Hechler\\AppData\\Local\\Packages\\PythonSoftwareFoundation.Python.3.8_qbz5n2kfra8p0\\LocalCache\\local-packages\\Python38\\site-packages\\numpy\\random\\__init__.py',
   'PYMODULE'),
  ('numpy.random._pickle',
   'C:\\Users\\Andreas '
   'Hechler\\AppData\\Local\\Packages\\PythonSoftwareFoundation.Python.3.8_qbz5n2kfra8p0\\LocalCache\\local-packages\\Python38\\site-packages\\numpy\\random\\_pickle.py',
   'PYMODULE'),
  ('numpy.polynomial',
   'C:\\Users\\Andreas '
   'Hechler\\AppData\\Local\\Packages\\PythonSoftwareFoundation.Python.3.8_qbz5n2kfra8p0\\LocalCache\\local-packages\\Python38\\site-packages\\numpy\\polynomial\\__init__.py',
   'PYMODULE'),
  ('numpy.polynomial.laguerre',
   'C:\\Users\\Andreas '
   'Hechler\\AppData\\Local\\Packages\\PythonSoftwareFoundation.Python.3.8_qbz5n2kfra8p0\\LocalCache\\local-packages\\Python38\\site-packages\\numpy\\polynomial\\laguerre.py',
   'PYMODULE'),
  ('numpy.polynomial._polybase',
   'C:\\Users\\Andreas '
   'Hechler\\AppData\\Local\\Packages\\PythonSoftwareFoundation.Python.3.8_qbz5n2kfra8p0\\LocalCache\\local-packages\\Python38\\site-packages\\numpy\\polynomial\\_polybase.py',
   'PYMODULE'),
  ('numpy.polynomial.hermite_e',
   'C:\\Users\\Andreas '
   'Hechler\\AppData\\Local\\Packages\\PythonSoftwareFoundation.Python.3.8_qbz5n2kfra8p0\\LocalCache\\local-packages\\Python38\\site-packages\\numpy\\polynomial\\hermite_e.py',
   'PYMODULE'),
  ('numpy.polynomial.hermite',
   'C:\\Users\\Andreas '
   'Hechler\\AppData\\Local\\Packages\\PythonSoftwareFoundation.Python.3.8_qbz5n2kfra8p0\\LocalCache\\local-packages\\Python38\\site-packages\\numpy\\polynomial\\hermite.py',
   'PYMODULE'),
  ('numpy.polynomial.legendre',
   'C:\\Users\\Andreas '
   'Hechler\\AppData\\Local\\Packages\\PythonSoftwareFoundation.Python.3.8_qbz5n2kfra8p0\\LocalCache\\local-packages\\Python38\\site-packages\\numpy\\polynomial\\legendre.py',
   'PYMODULE'),
  ('numpy.polynomial.chebyshev',
   'C:\\Users\\Andreas '
   'Hechler\\AppData\\Local\\Packages\\PythonSoftwareFoundation.Python.3.8_qbz5n2kfra8p0\\LocalCache\\local-packages\\Python38\\site-packages\\numpy\\polynomial\\chebyshev.py',
   'PYMODULE'),
  ('numpy.polynomial.polynomial',
   'C:\\Users\\Andreas '
   'Hechler\\AppData\\Local\\Packages\\PythonSoftwareFoundation.Python.3.8_qbz5n2kfra8p0\\LocalCache\\local-packages\\Python38\\site-packages\\numpy\\polynomial\\polynomial.py',
   'PYMODULE'),
  ('numpy.polynomial.polyutils',
   'C:\\Users\\Andreas '
   'Hechler\\AppData\\Local\\Packages\\PythonSoftwareFoundation.Python.3.8_qbz5n2kfra8p0\\LocalCache\\local-packages\\Python38\\site-packages\\numpy\\polynomial\\polyutils.py',
   'PYMODULE'),
  ('numpy.fft',
   'C:\\Users\\Andreas '
   'Hechler\\AppData\\Local\\Packages\\PythonSoftwareFoundation.Python.3.8_qbz5n2kfra8p0\\LocalCache\\local-packages\\Python38\\site-packages\\numpy\\fft\\__init__.py',
   'PYMODULE'),
  ('numpy.fft.helper',
   'C:\\Users\\Andreas '
   'Hechler\\AppData\\Local\\Packages\\PythonSoftwareFoundation.Python.3.8_qbz5n2kfra8p0\\LocalCache\\local-packages\\Python38\\site-packages\\numpy\\fft\\helper.py',
   'PYMODULE'),
  ('numpy.fft._pocketfft',
   'C:\\Users\\Andreas '
   'Hechler\\AppData\\Local\\Packages\\PythonSoftwareFoundation.Python.3.8_qbz5n2kfra8p0\\LocalCache\\local-packages\\Python38\\site-packages\\numpy\\fft\\_pocketfft.py',
   'PYMODULE'),
  ('numpy.linalg',
   'C:\\Users\\Andreas '
   'Hechler\\AppData\\Local\\Packages\\PythonSoftwareFoundation.Python.3.8_qbz5n2kfra8p0\\LocalCache\\local-packages\\Python38\\site-packages\\numpy\\linalg\\__init__.py',
   'PYMODULE'),
  ('numpy.linalg.linalg',
   'C:\\Users\\Andreas '
   'Hechler\\AppData\\Local\\Packages\\PythonSoftwareFoundation.Python.3.8_qbz5n2kfra8p0\\LocalCache\\local-packages\\Python38\\site-packages\\numpy\\linalg\\linalg.py',
   'PYMODULE'),
  ('numpy.lib',
   'C:\\Users\\Andreas '
   'Hechler\\AppData\\Local\\Packages\\PythonSoftwareFoundation.Python.3.8_qbz5n2kfra8p0\\LocalCache\\local-packages\\Python38\\site-packages\\numpy\\lib\\__init__.py',
   'PYMODULE'),
  ('numpy.lib._version',
   'C:\\Users\\Andreas '
   'Hechler\\AppData\\Local\\Packages\\PythonSoftwareFoundation.Python.3.8_qbz5n2kfra8p0\\LocalCache\\local-packages\\Python38\\site-packages\\numpy\\lib\\_version.py',
   'PYMODULE'),
  ('numpy.lib.arraypad',
   'C:\\Users\\Andreas '
   'Hechler\\AppData\\Local\\Packages\\PythonSoftwareFoundation.Python.3.8_qbz5n2kfra8p0\\LocalCache\\local-packages\\Python38\\site-packages\\numpy\\lib\\arraypad.py',
   'PYMODULE'),
  ('numpy.lib.arrayterator',
   'C:\\Users\\Andreas '
   'Hechler\\AppData\\Local\\Packages\\PythonSoftwareFoundation.Python.3.8_qbz5n2kfra8p0\\LocalCache\\local-packages\\Python38\\site-packages\\numpy\\lib\\arrayterator.py',
   'PYMODULE'),
  ('numpy.lib.financial',
   'C:\\Users\\Andreas '
   'Hechler\\AppData\\Local\\Packages\\PythonSoftwareFoundation.Python.3.8_qbz5n2kfra8p0\\LocalCache\\local-packages\\Python38\\site-packages\\numpy\\lib\\financial.py',
   'PYMODULE'),
  ('numpy.lib.npyio',
   'C:\\Users\\Andreas '
   'Hechler\\AppData\\Local\\Packages\\PythonSoftwareFoundation.Python.3.8_qbz5n2kfra8p0\\LocalCache\\local-packages\\Python38\\site-packages\\numpy\\lib\\npyio.py',
   'PYMODULE'),
  ('numpy.ma.mrecords',
   'C:\\Users\\Andreas '
   'Hechler\\AppData\\Local\\Packages\\PythonSoftwareFoundation.Python.3.8_qbz5n2kfra8p0\\LocalCache\\local-packages\\Python38\\site-packages\\numpy\\ma\\mrecords.py',
   'PYMODULE'),
  ('numpy.core.records',
   'C:\\Users\\Andreas '
   'Hechler\\AppData\\Local\\Packages\\PythonSoftwareFoundation.Python.3.8_qbz5n2kfra8p0\\LocalCache\\local-packages\\Python38\\site-packages\\numpy\\core\\records.py',
   'PYMODULE'),
  ('numpy.lib._iotools',
   'C:\\Users\\Andreas '
   'Hechler\\AppData\\Local\\Packages\\PythonSoftwareFoundation.Python.3.8_qbz5n2kfra8p0\\LocalCache\\local-packages\\Python38\\site-packages\\numpy\\lib\\_iotools.py',
   'PYMODULE'),
  ('numpy.lib._datasource',
   'C:\\Users\\Andreas '
   'Hechler\\AppData\\Local\\Packages\\PythonSoftwareFoundation.Python.3.8_qbz5n2kfra8p0\\LocalCache\\local-packages\\Python38\\site-packages\\numpy\\lib\\_datasource.py',
   'PYMODULE'),
  ('numpy.lib.format',
   'C:\\Users\\Andreas '
   'Hechler\\AppData\\Local\\Packages\\PythonSoftwareFoundation.Python.3.8_qbz5n2kfra8p0\\LocalCache\\local-packages\\Python38\\site-packages\\numpy\\lib\\format.py',
   'PYMODULE'),
  ('numpy.lib.arraysetops',
   'C:\\Users\\Andreas '
   'Hechler\\AppData\\Local\\Packages\\PythonSoftwareFoundation.Python.3.8_qbz5n2kfra8p0\\LocalCache\\local-packages\\Python38\\site-packages\\numpy\\lib\\arraysetops.py',
   'PYMODULE'),
  ('numpy.lib.utils',
   'C:\\Users\\Andreas '
   'Hechler\\AppData\\Local\\Packages\\PythonSoftwareFoundation.Python.3.8_qbz5n2kfra8p0\\LocalCache\\local-packages\\Python38\\site-packages\\numpy\\lib\\utils.py',
   'PYMODULE'),
  ('numpy.lib.polynomial',
   'C:\\Users\\Andreas '
   'Hechler\\AppData\\Local\\Packages\\PythonSoftwareFoundation.Python.3.8_qbz5n2kfra8p0\\LocalCache\\local-packages\\Python38\\site-packages\\numpy\\lib\\polynomial.py',
   'PYMODULE'),
  ('numpy.lib.ufunclike',
   'C:\\Users\\Andreas '
   'Hechler\\AppData\\Local\\Packages\\PythonSoftwareFoundation.Python.3.8_qbz5n2kfra8p0\\LocalCache\\local-packages\\Python38\\site-packages\\numpy\\lib\\ufunclike.py',
   'PYMODULE'),
  ('numpy.lib.shape_base',
   'C:\\Users\\Andreas '
   'Hechler\\AppData\\Local\\Packages\\PythonSoftwareFoundation.Python.3.8_qbz5n2kfra8p0\\LocalCache\\local-packages\\Python38\\site-packages\\numpy\\lib\\shape_base.py',
   'PYMODULE'),
  ('numpy.lib.nanfunctions',
   'C:\\Users\\Andreas '
   'Hechler\\AppData\\Local\\Packages\\PythonSoftwareFoundation.Python.3.8_qbz5n2kfra8p0\\LocalCache\\local-packages\\Python38\\site-packages\\numpy\\lib\\nanfunctions.py',
   'PYMODULE'),
  ('numpy.lib.type_check',
   'C:\\Users\\Andreas '
   'Hechler\\AppData\\Local\\Packages\\PythonSoftwareFoundation.Python.3.8_qbz5n2kfra8p0\\LocalCache\\local-packages\\Python38\\site-packages\\numpy\\lib\\type_check.py',
   'PYMODULE'),
  ('numpy.core.getlimits',
   'C:\\Users\\Andreas '
   'Hechler\\AppData\\Local\\Packages\\PythonSoftwareFoundation.Python.3.8_qbz5n2kfra8p0\\LocalCache\\local-packages\\Python38\\site-packages\\numpy\\core\\getlimits.py',
   'PYMODULE'),
  ('numpy.core.machar',
   'C:\\Users\\Andreas '
   'Hechler\\AppData\\Local\\Packages\\PythonSoftwareFoundation.Python.3.8_qbz5n2kfra8p0\\LocalCache\\local-packages\\Python38\\site-packages\\numpy\\core\\machar.py',
   'PYMODULE'),
  ('numpy.lib.scimath',
   'C:\\Users\\Andreas '
   'Hechler\\AppData\\Local\\Packages\\PythonSoftwareFoundation.Python.3.8_qbz5n2kfra8p0\\LocalCache\\local-packages\\Python38\\site-packages\\numpy\\lib\\scimath.py',
   'PYMODULE'),
  ('numpy.lib.mixins',
   'C:\\Users\\Andreas '
   'Hechler\\AppData\\Local\\Packages\\PythonSoftwareFoundation.Python.3.8_qbz5n2kfra8p0\\LocalCache\\local-packages\\Python38\\site-packages\\numpy\\lib\\mixins.py',
   'PYMODULE'),
  ('numpy.compat',
   'C:\\Users\\Andreas '
   'Hechler\\AppData\\Local\\Packages\\PythonSoftwareFoundation.Python.3.8_qbz5n2kfra8p0\\LocalCache\\local-packages\\Python38\\site-packages\\numpy\\compat\\__init__.py',
   'PYMODULE'),
  ('numpy.compat.py3k',
   'C:\\Users\\Andreas '
   'Hechler\\AppData\\Local\\Packages\\PythonSoftwareFoundation.Python.3.8_qbz5n2kfra8p0\\LocalCache\\local-packages\\Python38\\site-packages\\numpy\\compat\\py3k.py',
   'PYMODULE'),
  ('numpy.core',
   'C:\\Users\\Andreas '
   'Hechler\\AppData\\Local\\Packages\\PythonSoftwareFoundation.Python.3.8_qbz5n2kfra8p0\\LocalCache\\local-packages\\Python38\\site-packages\\numpy\\core\\__init__.py',
   'PYMODULE'),
  ('numpy.core._add_newdocs',
   'C:\\Users\\Andreas '
   'Hechler\\AppData\\Local\\Packages\\PythonSoftwareFoundation.Python.3.8_qbz5n2kfra8p0\\LocalCache\\local-packages\\Python38\\site-packages\\numpy\\core\\_add_newdocs.py',
   'PYMODULE'),
  ('numpy.core.einsumfunc',
   'C:\\Users\\Andreas '
   'Hechler\\AppData\\Local\\Packages\\PythonSoftwareFoundation.Python.3.8_qbz5n2kfra8p0\\LocalCache\\local-packages\\Python38\\site-packages\\numpy\\core\\einsumfunc.py',
   'PYMODULE'),
  ('numpy.core.memmap',
   'C:\\Users\\Andreas '
   'Hechler\\AppData\\Local\\Packages\\PythonSoftwareFoundation.Python.3.8_qbz5n2kfra8p0\\LocalCache\\local-packages\\Python38\\site-packages\\numpy\\core\\memmap.py',
   'PYMODULE'),
  ('numpy.core.defchararray',
   'C:\\Users\\Andreas '
   'Hechler\\AppData\\Local\\Packages\\PythonSoftwareFoundation.Python.3.8_qbz5n2kfra8p0\\LocalCache\\local-packages\\Python38\\site-packages\\numpy\\core\\defchararray.py',
   'PYMODULE'),
  ('numpy._distributor_init',
   'C:\\Users\\Andreas '
   'Hechler\\AppData\\Local\\Packages\\PythonSoftwareFoundation.Python.3.8_qbz5n2kfra8p0\\LocalCache\\local-packages\\Python38\\site-packages\\numpy\\_distributor_init.py',
   'PYMODULE'),
  ('numpy.version',
   'C:\\Users\\Andreas '
   'Hechler\\AppData\\Local\\Packages\\PythonSoftwareFoundation.Python.3.8_qbz5n2kfra8p0\\LocalCache\\local-packages\\Python38\\site-packages\\numpy\\version.py',
   'PYMODULE'),
  ('numpy.__config__',
   'C:\\Users\\Andreas '
   'Hechler\\AppData\\Local\\Packages\\PythonSoftwareFoundation.Python.3.8_qbz5n2kfra8p0\\LocalCache\\local-packages\\Python38\\site-packages\\numpy\\__config__.py',
   'PYMODULE'),
  ('numpy._globals',
   'C:\\Users\\Andreas '
   'Hechler\\AppData\\Local\\Packages\\PythonSoftwareFoundation.Python.3.8_qbz5n2kfra8p0\\LocalCache\\local-packages\\Python38\\site-packages\\numpy\\_globals.py',
   'PYMODULE'),
  ('isort._vendored.toml.decoder',
   'C:\\Users\\Andreas '
   'Hechler\\AppData\\Local\\Packages\\PythonSoftwareFoundation.Python.3.8_qbz5n2kfra8p0\\LocalCache\\local-packages\\Python38\\site-packages\\isort\\_vendored\\toml\\decoder.py',
   'PYMODULE'),
  ('isort._vendored.toml.tz',
   'C:\\Users\\Andreas '
   'Hechler\\AppData\\Local\\Packages\\PythonSoftwareFoundation.Python.3.8_qbz5n2kfra8p0\\LocalCache\\local-packages\\Python38\\site-packages\\isort\\_vendored\\toml\\tz.py',
   'PYMODULE'),
  ('isort._vendored', '-', 'PYMODULE'),
  ('isort.stdlibs',
   'C:\\Users\\Andreas '
   'Hechler\\AppData\\Local\\Packages\\PythonSoftwareFoundation.Python.3.8_qbz5n2kfra8p0\\LocalCache\\local-packages\\Python38\\site-packages\\isort\\stdlibs\\__init__.py',
   'PYMODULE'),
  ('isort.stdlibs.all',
   'C:\\Users\\Andreas '
   'Hechler\\AppData\\Local\\Packages\\PythonSoftwareFoundation.Python.3.8_qbz5n2kfra8p0\\LocalCache\\local-packages\\Python38\\site-packages\\isort\\stdlibs\\all.py',
   'PYMODULE'),
  ('isort.stdlibs.py3',
   'C:\\Users\\Andreas '
   'Hechler\\AppData\\Local\\Packages\\PythonSoftwareFoundation.Python.3.8_qbz5n2kfra8p0\\LocalCache\\local-packages\\Python38\\site-packages\\isort\\stdlibs\\py3.py',
   'PYMODULE'),
  ('isort.stdlibs.py39',
   'C:\\Users\\Andreas '
   'Hechler\\AppData\\Local\\Packages\\PythonSoftwareFoundation.Python.3.8_qbz5n2kfra8p0\\LocalCache\\local-packages\\Python38\\site-packages\\isort\\stdlibs\\py39.py',
   'PYMODULE'),
  ('isort.stdlibs.py38',
   'C:\\Users\\Andreas '
   'Hechler\\AppData\\Local\\Packages\\PythonSoftwareFoundation.Python.3.8_qbz5n2kfra8p0\\LocalCache\\local-packages\\Python38\\site-packages\\isort\\stdlibs\\py38.py',
   'PYMODULE'),
  ('isort.stdlibs.py37',
   'C:\\Users\\Andreas '
   'Hechler\\AppData\\Local\\Packages\\PythonSoftwareFoundation.Python.3.8_qbz5n2kfra8p0\\LocalCache\\local-packages\\Python38\\site-packages\\isort\\stdlibs\\py37.py',
   'PYMODULE'),
  ('isort.stdlibs.py36',
   'C:\\Users\\Andreas '
   'Hechler\\AppData\\Local\\Packages\\PythonSoftwareFoundation.Python.3.8_qbz5n2kfra8p0\\LocalCache\\local-packages\\Python38\\site-packages\\isort\\stdlibs\\py36.py',
   'PYMODULE'),
  ('isort.stdlibs.py35',
   'C:\\Users\\Andreas '
   'Hechler\\AppData\\Local\\Packages\\PythonSoftwareFoundation.Python.3.8_qbz5n2kfra8p0\\LocalCache\\local-packages\\Python38\\site-packages\\isort\\stdlibs\\py35.py',
   'PYMODULE'),
  ('isort.stdlibs.py2',
   'C:\\Users\\Andreas '
   'Hechler\\AppData\\Local\\Packages\\PythonSoftwareFoundation.Python.3.8_qbz5n2kfra8p0\\LocalCache\\local-packages\\Python38\\site-packages\\isort\\stdlibs\\py2.py',
   'PYMODULE'),
  ('isort.stdlibs.py27',
   'C:\\Users\\Andreas '
   'Hechler\\AppData\\Local\\Packages\\PythonSoftwareFoundation.Python.3.8_qbz5n2kfra8p0\\LocalCache\\local-packages\\Python38\\site-packages\\isort\\stdlibs\\py27.py',
   'PYMODULE'),
  ('typing',
   'C:\\Program '
   'Files\\WindowsApps\\PythonSoftwareFoundation.Python.3.8_3.8.2800.0_x64__qbz5n2kfra8p0\\lib\\typing.py',
   'PYMODULE'),
  ('pathlib',
   'C:\\Program '
   'Files\\WindowsApps\\PythonSoftwareFoundation.Python.3.8_3.8.2800.0_x64__qbz5n2kfra8p0\\lib\\pathlib.py',
   'PYMODULE'),
  ('datetime',
   'C:\\Program '
   'Files\\WindowsApps\\PythonSoftwareFoundation.Python.3.8_3.8.2800.0_x64__qbz5n2kfra8p0\\lib\\datetime.py',
   'PYMODULE'),
  ('shutil',
   'C:\\Program '
   'Files\\WindowsApps\\PythonSoftwareFoundation.Python.3.8_3.8.2800.0_x64__qbz5n2kfra8p0\\lib\\shutil.py',
   'PYMODULE'),
  ('logging',
   'C:\\Program '
   'Files\\WindowsApps\\PythonSoftwareFoundation.Python.3.8_3.8.2800.0_x64__qbz5n2kfra8p0\\lib\\logging\\__init__.py',
   'PYMODULE')])
